#segment file created by carse editor
0,0,0,0
0,0,0,0
0,0,0,0
0,0,0,0
0,0,0,0
0,0,0,0,1,-9.25433
0,0,0,0
0,0,0,0
0,0,0,0
0,0,0,0
0,0,0,0
0,0,0,0
0,0,0,0
0,0,0,0
0,0,0,0
0,0,0,0
0,0,0,0
0,0,0,0
0,0,0,0
0,0,0,0
0,0,0,0
0,0,0,0
0,0,0,0
0,0,0,0
0,0,0,0
0,0,0,0
0,0,0,0
0,0,0,0,0,-12.0362
0,0,0,0
0,0,0,0
0,0,0,0
0,0,0,0
0,0,0,0
0,0,0,0
0,0,0,0
0,0,0,0,0,-12.2444
0,0,0,0
0,0,0,0
0,0,0,0
0,0,0,0
0,0,0,0
0,0,0,0,0,-11.9473
0,0,0,0
0,0,0,0
0,0,0,0
0,0,0,0
0,0,0,0
0,0,0,0
0,0,0,0
0,0,0,0
0,0,0,0
0,0,0,0
0,0,0,0
0,0,0,0
0,0,0,0
0,0,0,0
0,0,0,0
0,0,0,0
0,0,0,0
0,0,0,0
0,0,0,0
0,0,0,0
0,0,0,0
0,0,0,0,0,12.8666
0,0,0,0
0,0,0,0
0,0,0,0
0,0,0,0
0,0,0,0
0,0,0,0
0,0,0,0
0,0,0,0
0,0,0,0
0,0,0,0
0,0,0,0
0,0,0,0,0,14.702
0,0,0,0
0,0,0,0
0,0,0,0
0,0,0,0
0,0,0,0
0,0,0,0
0,0,0,0
0,0,0,0
0,0,0,0
0,0,0,0,0,-11.4851
0,0,0,0
0,0,0,0
0,0,0,0
0,0,0,0
0,0,0,0
0,0,0,0
0,0,0,0
0,0,0,0
0,0,0,0
0,0,0,0
0,0,0,0
0,0,0,0
0,0,0,0
0,0,0,0
0,0,0,0
0,0,0,0
0,0,0,0,0,-13.1405
0,0,0,0
0,0,0,0
0,0,0,0
0,0,0,0
0,0,0,0
0,0,0,0
0,0,0,0
0,0,0,0
0,0,0,0
0,0,0,0
0,0,0,0
0,0,0,0
0,0,0,0,0,13.317
0,0,0,0
0,0,0,0
0,0,0,0
0,0,0,0
0,0,0,0
0,0,0,0
0,0,0,0
0,0,0,0
0,0,0,0
0,0,0,0
0,0,0,0
0,0,0,0
0,0,0,0
0,0,0,0
0,0,0,0
0,0,0,0
0,0,0,0
0,0,0,0
0,0,0,0
0,0,0,0
0,0,0,0
0,0,0,0
0,0,0,0
0,0,0,0
0,0,0,0
0,0,0,0
0,0,0,0
0,0,0,0
0,0,0,0
0,0,0,0
0,0,0,0
0,0,0,0
0,0,0,0,0,13.2456
0,0,0,0,0,13.5393
0,0,0,0
0,0,0,0
0,0,0,0
0,0,0,0
0,0,0,0
0,0,0,0
0,0,0,0,0,-8.86206
0,0,0,0
0,0,0,0
0,0,0,0
0,0,0,0
0,0,0,0
0,0,0,0
0,0,0,0
0,0,0,0
0,0,0,0
0,0,0,0
0,0,0,0
0,0,0,0
0,0,0,0
0,0,0,0
0,0,0,0
0,0,0,0
0,0,0,0
0,0,0,0,0,9.0397
0,0,0,0
0,0,0,0
0,0,0,0
0,0,0,0
0,0,0,0
0,0,0,0
0,0,0,0
0,0,0,0,0,-8.04395
0,0,0,0
0,0,0,0
0,0,0,0,0,-12.46
0,0,0,0
0,0,0,0
0,0,0,0
0,0,0,0
0,0,0,0
0,0,0,0,0,10.0539
0,0,0,0
0,0,0,0,0,14.4528
0,0,0,0
0,0,0,0
0,0,0,0
0,0,0,0
0,0,0,0
0,0,0,0
0,0,0,0,0,11.2403
0,0,0,0
0,0,0,0
0,0,0,0,0,11.4231
0,0,0,0
0,0,0,0
0,0,0,0
0,0,0,0
0,0,0,0
0,0,0,0
0,0,0,0
0,0,0,0
0,0,0,0
0,0,0,0,0,14.942
0,0,0,0
0,0,0,0
0,0,0,0
0,0,0,0
0,0,0,0
0,0,0,0
0,0,0,0
0,0,0,0
0,0,0,0
0,0,0,0
0,0,0,0
0,0,0,0
0,0,0,0
0,0,0,0
0,0,0,0,0,10.0759
0,0,0,0,0,11.9613
0,0,0,0
0,0,0,0
0,0,0,0
0,0,0,0
0,0,0,0
0,0,0,0
0,0,0,0,0,10.2552
0,0,0,0
0,0,0,0,1,9.54246
0,0,0,0,0,-10.5887
0,0,0,0
0,0,0,0
0,0,0,0
0,0,0,0
0,0,0,0
0,0,0,0
0,0,0,0
0,0,0,0
0,0,0,0,0,8.0139
0,0,0,0
0,0,0,0
0,0,0,0
0,0,0,0,0,11.5722
0,0,0,0
0,0,0,0
0,0,0,0
0,0,0,0
0,0,0,0
0,0,0,0
0,0,0,0
0,0,0,0
0,0,0,0
0,0,0,0
0,0,0,0
0,0,0,0
0,0,0,0
0,0,0,0
0,0,0,0
0,0,0,0
0,0,0,0
0,0,0,0
0,0,0,0,0,-10.4199
0,0,0,0
0,0,0,0
0,0,0,0
0,0,0,0
0,0,0,0
0,0,0,0
0,0,0,0
0,0,0,0,0,-13.8977
0,0,0,0
0,0,0,0
0,0,0,0
0,0,0,0
0,0,0,0
0,0,0,0
0,0,0,0
0,0,0,0
0,0,0,0
0,0,0,0
0,0,0,0
0,0,0,0
0,0,0,0
0,0,0,0
0,0,0,0
0,0,0,0
0,0,0,0,0,-14.0699
0,0,0,0
0,0,0,0
0,0,0,0
0,0,0.523599,0
0,0,0.523599,0
0,0,0.523599,0
0,0,0.523599,0
0,0,0.523599,0
0,0,0.523599,0
0,0,0.523599,0
0,0,0.523599,0
0,0,0.523599,0,0,-9.7403
0,0,0.523599,0
0,0,0.523599,0
0,0,0.523599,0
0,0,0.523599,0
0,0,0.523599,0
0,0,0.523599,0
0,0,0.523599,0
0,0,0.523599,0,0,12.2872
0,0,0.523599,0
0,0,0.523599,0
0,0,0.523599,0,1,-8.00448
0,0,0.523599,0
0,0,0.523599,0,0,11.5717
0,0,0.523599,0
0,0,0.523599,0
0,0,0.523599,0
0,0,0.523599,0
0,0,0.523599,0
0,0,0.523599,0
0,0,0.523599,0
0,0,0.523599,0
0,0,0.523599,0
0,0,0.523599,0
0,0,0.523599,0
0,0,0.523599,0
0,0,0.523599,0
0,0,0.523599,0
0,0,0.523599,0
0,0,0.523599,0
0,0,0.523599,0
0,0,0.523599,0
0,0,0.523599,0
0,0,0.523599,0,0,-10.2815
0,0,0.523599,0
0,0,0.523599,0
0,0,0.523599,0
0,0,0.523599,0
0,0,0.523599,0
0,0,0.523599,0
0,0,0.523599,0
0,0,0.523599,0
0,0,0.523599,0
0,0,0.523599,0
0,0,0.523599,0
0,0,0.523599,0,0,-10.1428
0,0,0.523599,0
0,0,0.523599,0
0,0,0.523599,0
0,0,0.523599,0
0,0,0.523599,0
0,0,0.523599,0
0,0,0.523599,0
0,0,0.523599,0
0,0,0.523599,0
0,0,0.523599,0
0,0,0.523599,0
0,0,0.523599,0
0,0,0.523599,0
0,0,0.523599,0
0,0,0.523599,0
0,0,0.523599,0
0,0,0.523599,0
0,0,0.523599,0
0,0,0.523599,0,0,10.7858
0,0,0.523599,0
0,0,0.523599,0
0,0,0.523599,0
0,0,0.523599,0
0,0,0.523599,0
0,0,0.523599,0
0,0,0.523599,0
0,0,0.523599,0
0,0,0.523599,0
0,0,0.523599,0
0,0,0.523599,0
0,0,0.523599,0,0,8.67012
0,0,0.523599,0
0,0,0.523599,0
0,0,0.523599,0
0,0,0.523599,0
0,0,0.523599,0
0,0,0.523599,0
0,0,0.523599,0
0,0,0.523599,0
0,0,0.523599,0
0,0,0.523599,0
0,0,0.523599,0
0,0,0.523599,0
0,0,0.523599,0,0,-12.4996
0,0,0.523599,0
0,0,0.523599,0
0,0,0.523599,0
0,0,0.523599,0,0,-10.2396
0,0,0.523599,0
0,0,0.523599,0
0,0,0.523599,0
0,0,0.523599,0,2,12.8754
0,0,0.523599,0
0,0,0.523599,0
0,0,0.523599,0
0,0,0.523599,0
0,0,0.523599,0
0,0,0.523599,0
0,0,0.523599,0
0,0,0.523599,0
0,0,0.523599,0
0,0,0.523599,0
0,0,0.523599,0
0,0,0.523599,0
0,0,0.523599,0
0,0,0.523599,0
0,0,0.523599,0
0,0,0.523599,0
0,0,0.523599,0
0,0,0.523599,0
0,0,0.523599,0
0,0,0.523599,0
0,0,0.523599,0
0,0,0.523599,0
0,0,0.523599,0
0,0,0.523599,0
0,0,0.523599,0
0,0,0.523599,0,0,-13.5817
0,0,0.523599,0
0,0,0.523599,0
0,0,0.523599,0
0,0,0.523599,0,0,11.7928
0,0,0.523599,0
0,0,0.523599,0
0,0,0.523599,0
0,0,0.523599,0
0,0,0.523599,0,0,10.1959
0,0,0.523599,0
0,0,0.523599,0
0,0,0.523599,0
0,0,0.523599,0
0,0,0.523599,0,0,-12.0305
0,0,0.523599,0
0,0,0.523599,0
0,0,0.523599,0
0,0,0.523599,0
0,0,0.523599,0
0,0,0.523599,0
0,0,0.523599,0
0,0,0.523599,0
0,0,0.523599,0
0,0,0.523599,0
0,0,0.523599,0
0,0,0.523599,0
0,0,0.523599,0
0,0,0.523599,0
0,0,0.523599,0
0,0,0.523599,0,0,11.0767
0,0,0.523599,0
0,0,0.523599,0
0,0,0.523599,0
0,0,0.523599,0,0,-14.4825
0,0,0.523599,0
0,0,0.523599,0
0,0,0.523599,0
0,0,0.523599,0
0,0,0.523599,0
0,0,0.523599,0
0,0,0.523599,0
0,0,0.523599,0,1,-9.50904
0,0,0.523599,0,0,10.9803
0,0,0.523599,0
0,0,0.523599,0
0,0,0.523599,0
0,0,0.523599,0
0,0,0.523599,0
0,0,0.523599,0
0,0,0.523599,0
0,0,0.523599,0,0,-12.6072
0,0,0.523599,0
0,0,0.523599,0
0,0,0.523599,0,0,-14.6419
0,0,0.523599,0
0,0,0.523599,0,0,11.8127
0,0,0.523599,0
0,0,0.523599,0
0,0,0.523599,0
0,0,0.523599,0
0,0,0.523599,0
0,0,0.523599,0
0,0,0.523599,0
0,0,0.523599,0
0,0,0.523599,0
0,0,0.523599,0
0,0,0.523599,0
0,0,0.523599,0
0,0,0.523599,0
0,0,0.523599,0,0,-14.4131
0,0,0.523599,0
0,0,0.523599,0
0,0,0.523599,0
0,0,0.523599,0
0,0,0.523599,0
0,0,0.523599,0,1,7.64868
0,0,0.523599,0
0,0,0.523599,0
0,0,0.523599,0
0,0,0.523599,0
0,0,0.523599,0,0,12.1314
0,0,0.523599,0
0,0,0.523599,0
0,0,0.523599,0
0,0,0.523599,0
0,0,0.523599,0
0,0,0.523599,0
0,0,0.523599,0
0,0,0.523599,0
0,0,0.523599,0
0,0,0.523599,0
0,0,0.523599,0
0,0,0.523599,0
0,0,0.523599,0
0,0,0.523599,0
0,0,0.523599,0
0,0,0.523599,0,0,-11.2211
0,0,0.523599,0
0,0,0.523599,0
0,0,0.523599,0
0,0,0.523599,0,1,8.89564
0,0,0.523599,0
0,0,0.523599,0
0,0,0.523599,0
0,0,0.523599,0
0,0,0.523599,0
0,0,0.523599,0
0,0,0.523599,0
0,0,0.523599,0
0,0,0.523599,0,0,-9.71408
0,0,0.523599,0
0,0,0.523599,0
0,0,0.523599,0,0,14.0637
0,0,0.523599,0
0,0,0.523599,0
0,0,0.523599,0,0,-7.7038
0,0,0.523599,0
0,0,0.523599,0
0,0,0.523599,0
0,0,0.523599,0
0,0,0.523599,0
0,0,0.523599,0
0,0,0.523599,0
0,0,0.523599,0,1,-8.28676
0,0,0.523599,0
0,0,0.523599,0
0,0,0.523599,0
0,0,0.523599,0
0,0,0.523599,0
0,0,0.523599,0,0,-14.9256
0,0,0.523599,0
0,0,0.523599,0
0,0,0.523599,0
0,0,0.523599,0
0,0,0.523599,0,0,9.32296
0,0,0.523599,0
0,0,0.523599,0
0,0,0.523599,0
0,0,0.523599,0
0,0,0.523599,0,0,-14.4815
0,0,0.523599,0
0,0,0.523599,0
0,0,0.523599,0
0,0,0.523599,0
0,0,0.523599,0
0,0,0.523599,0
0,0,0.523599,0,0,14.4142
0,0,0.523599,0
0,0,0.523599,0
0,0,0.523599,0
0,0,0.523599,0
0,0,0.523599,0
0,0,0.523599,0,0,7.86664
0,0,0.523599,0
0,0,0.523599,0
0,0,0.523599,0
0,0,0.523599,0
0,0,0.523599,0,0,10.4693
0,0,0.523599,0
0,0,0.523599,0
0,0,0.523599,0
0,0,0.523599,0
0,0,0.523599,0
0,0,0.523599,0,0,8.22565
0,0,0.523599,0
0,0,0.523599,0
0,0,0.523599,0
0,0,0.523599,0
0,0,0,0
0,0,0,0
0,0,0,0
0,0,0,0
0,0,0,0
0,0,0,0
0,0,0,0
0,0,0,0
0,0,0,0
0,0,0,0
0,0,0,0
0,0,0,0
0,0,0,0
0,0,0,0
0,0,0,0
0,0,0,0
0,0,0,0
0,0,0,0
0,0,0,0
0,0,0,0
0,0,0,0
0,0,0,0
0,0,0,0
0,0,0,0
0,0,0,0
0,0,0,0
0,0,0,0
0,0,0,0
0,0,0,0
0,0,0,0
0,0,0,0
0,0,0,0
0,0,0,0
0,0,0,0
0,0,0,0
0,0,0,0
0,0,0,0
0,0,0,0
0,0,0,0
0,0,0,0
0,0,0,0
0,0,0,0
0,0,0,0,0,12.7546
0,0,0,0
0,0,0,0,0,14.3656
0,0,0,0
0,0,0,0,0,11.203
0,0,0,0
0,0,0,0
0,0,0,0
0,0,0,0,0,-11.2713
0,0,0,0
0,0,0,0
0,0,0,0,0,9.98226
0,0,0,0
0,0,0,0
0,0,0,0
0,0,0,0
0,0,0,0
0,0,0,0
0,0,0,0
0,0,0,0
0,0,0,0
0,0,0,0
0,0,0,0
0,0,0,0
0,0,0,0
0,0,0,0
0,0,0,0
0,0,0,0
0,0,0,0
0,0,0,0
0,0,0,0
0,0,0,0
0,0,0,0
0,0,0,0
0,0,0,0
0,0,0,0
0,0,0,0
0,0,0,0,0,12.6328
0,0,0,0
0,0,0,0
0,0,0,0
0,0,0,0
0,0,0,0
0,0,0,0,0,12.6155
0,0,0,0
0,0,0,0
0,0,0,0
0,0,0,0
0,0,0,0
0,0,0,0
0,0,0,0
0,0,0,0
0,0,0,0
0,0,0,0
0,0,0,0,0,-10.9434
0,0,0,0
0,0,0,0
0,0,0,0
0,0,-1.0472,0
0,0,-1.0472,0
0,0,-1.0472,0,0,12.9583
0,0,-1.0472,0
0,0,-1.0472,0
0,0,-1.0472,0
0,0,-1.0472,0
0,0,-1.0472,0
0,0,-1.0472,0
0,0,-1.0472,0
0,0,-1.0472,0
0,0,-1.0472,0
0,0,-1.0472,0
0,0,-1.0472,0
0,0,-1.0472,0,0,14.1936
0,0,-1.0472,0
0,0,-1.0472,0
0,0,-1.0472,0
0,0,-1.0472,0
0,0,-1.0472,0
0,0,-1.0472,0
0,0,-1.0472,0
0,0,-1.0472,0
0,0,-1.0472,0
0,0,-1.0472,0
0,0,-1.0472,0
0,0,-1.0472,0
0,0,-1.0472,0
0,0,-1.0472,0
0,0,-1.0472,0
0,0,-1.0472,0
0,0,-1.0472,0
0,0,-1.0472,0
0,0,-1.0472,0
0,0,-1.0472,0,1,7.69494
0,0,-1.0472,0
0,0,-1.0472,0
0,0,-1.0472,0
0,0,-1.0472,0
0,0,-1.0472,0
0,0,-1.0472,0
0,0,-1.0472,0
0,0,-1.0472,0,0,11.3315
0,0,-1.0472,0,0,12.1359
0,0,-1.0472,0
0,0,-1.0472,0
0,0,-1.0472,0
0,0,-1.0472,0
0,0,-1.0472,0
0,0,-1.0472,0
0,0,-1.0472,0
0,0,-1.0472,0
0,0,-1.0472,0
0,0,-1.0472,0
0,0,-1.0472,0
0,0,-1.0472,0
0,0,-1.0472,0,0,13.0181
0,0,-1.0472,0
0,0,-1.0472,0
0,0,-1.0472,0,0,-11.544
0,0,-1.0472,0
0,0,-1.0472,0
0,0,-1.0472,0
0,0,-1.0472,0
0,0,-1.0472,0
0,0,-1.0472,0,0,14.198
0,0,-1.0472,0
0,0,-1.0472,0
0,0,-1.0472,0
0,0,-1.0472,0
0,0,-1.0472,0
0,0,-1.0472,0
0,0,-1.0472,0
0,0,-1.0472,0
0,0,-1.0472,0
0,0,-1.0472,0
0,0,-1.0472,0
0,0,-1.0472,0
0,0,-1.0472,0
0,0,-1.0472,0
0,0,-1.0472,0
0,0,-1.0472,0
0,0,-1.0472,0
0,0,-1.0472,0
0,0,-1.0472,0
0,0,-1.0472,0
0,0,-1.0472,0
0,0,-1.0472,0,0,-13.1435
0,0,-1.0472,0
0,0,-1.0472,0
0,0,-1.0472,0
0,0,-1.0472,0
0,0,-1.0472,0
0,0,-1.0472,0
0,0,-1.0472,0
0,0,-1.0472,0
0,0,-1.0472,0
0,0,-1.0472,0
0,0,-1.0472,0
0,0,-1.0472,0
0,0,-1.0472,0
0,0,-1.0472,0
0,0,-1.0472,0
0,0,-1.0472,0
0,0,-1.0472,0
0,0,-1.0472,0
0,0,-1.0472,0
0,0,-1.0472,0
0,0,-1.0472,0
0,0,-1.0472,0
0,0,-1.0472,0
0,0,-1.0472,0
0,0,-1.0472,0,0,-13.6688
0,0,-1.0472,0
0,0,-1.0472,0
0,0,-1.0472,0
0,0,-1.0472,0
0,0,-1.0472,0
0,0,-1.0472,0
0,0,-1.0472,0
0,0,-1.0472,0
0,0,-1.0472,0
0,0,-1.0472,0
0,0,-1.0472,0
0,0,-1.0472,0,0,-10.2256
0,0,-1.0472,0
0,0,-1.0472,0
0,0,-1.0472,0
0,0,-1.0472,0
0,0,-1.0472,0
0,0,-1.0472,0
0,0,-1.0472,0
0,0,-1.0472,0
0,0,-1.0472,0,0,-14.476
0,0,-1.0472,0
0,0,-1.0472,0
0,0,-1.0472,0
0,0,-1.0472,0
0,0,-1.0472,0
0,0,-1.0472,0
0,0,-1.0472,0
0,0,-1.0472,0
0,0,-1.0472,0
0,0,-1.0472,0
0,0,-1.0472,0
0,0,-1.0472,0
0,0,-1.0472,0,0,8.69365
0,0,-1.0472,0
0,0,-1.0472,0
0,0,-1.0472,0
0,0,-1.0472,0
0,0,-1.0472,0
0,0,-1.0472,0
0,0,-1.0472,0
0,0,-1.0472,0
0,0,-1.0472,0
0,0,-1.0472,0
0,0,-1.0472,0
0,0,-1.0472,0
0,0,-1.0472,0
0,0,-1.0472,0
0,0,-1.0472,0
0,0,-1.0472,0
0,0,-1.0472,0,0,-8.59657
0,0,-1.0472,0
0,0,-1.0472,0
0,0,-1.0472,0
0,0,-1.0472,0
0,0,-1.0472,0
0,0,-1.0472,0
0,0,-1.0472,0
0,0,-1.0472,0,1,-9.10392
0,0,-1.0472,0
0,0,-1.0472,0
0,0,-1.0472,0
0,0,-1.0472,0
0,0,-1.0472,0
0,0,-1.0472,0
0,0,-1.0472,0
0,0,-1.0472,0
0,0,-1.0472,0
0,0,-1.0472,0
0,0,-1.0472,0
0,0,-1.0472,0
0,0,-1.0472,0
0,0,-1.0472,0,0,-14.0683
0,0,-1.0472,0,1,-8.21061
0,0,-1.0472,0,0,11.4045
0,0,-1.0472,0
0,0,-1.0472,0
0,0,-1.0472,0
0,0,-1.0472,0
0,0,-1.0472,0
0,0,-1.0472,0
0,0,-1.0472,0
0,0,-1.0472,0,0,-7.67597
0,0,-1.0472,0
0,0,-1.0472,0
0,0,-1.0472,0
0,0,-1.0472,0
0,0,-1.0472,0
0,0,-1.0472,0
0,0,-1.0472,0,0,8.83038
0,0,-1.0472,0
0,0,-1.0472,0
0,0,-1.0472,0
0,0,-1.0472,0
0,0,-1.0472,0
0,0,-1.0472,0,0,-10.1889
0,0,-1.0472,0
0,0,-1.0472,0
0,0,-1.0472,0
0,0,-1.0472,0
0,0,-1.0472,0
0,0,-1.0472,0
0,0,-1.0472,0
0,0,-1.0472,0
0,0,-1.0472,0,0,-8.68107
0,0,-1.0472,0,2,-10.1005
0,0,-1.0472,0
0,0,-1.0472,0
0,0,-1.0472,0
0,0,-1.0472,0
0,0,-1.0472,0
0,0,-1.0472,0
0,0,-1.0472,0
0,0,-1.0472,0,0,8.07608
0,0,-1.0472,0
0,0,-1.0472,0
0,0,-1.0472,0
0,0,-1.0472,0
0,0,-1.0472,0
0,0,-1.0472,0
0,0,-1.0472,0
0,0,-1.0472,0
0,0,-1.0472,0
0,0,-1.0472,0
0,0,-1.0472,0
0,0,-1.0472,0
0,0,-1.0472,0
0,0,-1.0472,0
0,0,-1.0472,0
0,0,-1.0472,0
0,0,-1.0472,0
0,0,-1.0472,0
0,0,-1.0472,0
0,0,-1.0472,0
0,0,-1.0472,0
0,0,-1.0472,0
0,0,-1.0472,0
0,0,-1.0472,0,0,-7.90169
0,0,-1.0472,0
0,0,-1.0472,0
0,0,-1.0472,0,0,-12.2176
0,0,-1.0472,0
0,0,-1.0472,0,0,7.50563
0,0,-1.0472,0
0,0,-1.0472,0
0,0,-1.0472,0
0,0,-1.0472,0
0,0,-1.0472,0
0,0,-1.0472,0
0,0,-1.0472,0
0,0,-1.0472,0,0,-9.53273
0,0,-1.0472,0,1,-7.73087
0,0,-1.0472,0
0,0,-1.0472,0
0,0,-1.0472,0
0,0,-1.0472,0
0,0,-1.0472,0,0,11.3865
0,0,-1.0472,0
0,0,-1.0472,0
0,0,-1.0472,0
0,0,-1.0472,0
0,0,-1.0472,0
0,0,-1.0472,0
0,0,-1.0472,0,0,11.8812
0,0,-1.0472,0
0,0,-1.0472,0,0,-11.768
0,0,-1.0472,0
0,0,-1.0472,0
0,0,-1.0472,0
0,0,-1.0472,0
0,0,-1.0472,0
0,0,-1.0472,0
0,0,-1.0472,0
0,0,-1.0472,0
0,0,-1.0472,0,0,-13.6319
0,0,-1.0472,0
0,0,-1.0472,0
0,0,-1.0472,0
0,0,-1.0472,0,0,13.7907
0,0,-1.0472,0
0,0,-1.0472,0
0,0,-1.0472,0,0,-13.4686
0,0,-1.0472,0
0,0,-1.0472,0
0,0,-1.0472,0
0,0,-1.0472,0
0,0,-1.0472,0
0,0,0,0
0,0.822452,0,0
0,2.46727,0,0
0,4.93426,0,0
0,8.22317,0,0
0,12.3336,0,0
0,17.2652,0,0
0,23.0173,0,0
0,29.5893,0,0
0,36.9806,0,0
0,45.1902,0,0
0,54.2174,0,0
0,64.061,0,0
0,74.7201,0,0
0,86.1934,0,0
0,98.4798,0,0
0,111.578,0,0
0,125.486,0,0
0,140.203,0,0
0,155.727,0,0
0,172.056,0,0
0,189.189,0,0
0,207.124,0,0
0,225.858,0,0
0,245.39,0,0
0,265.718,0,0
0,286.839,0,0,0,-9.09911
0,308.751,0,0
0,331.451,0,0
0,354.938,0,0
0,379.208,0,0
0,404.259,0,0
0,430.088,0,0,0,-10.4164
0,456.692,0,0
0,484.069,0,0
0,512.215,0,0
0,541.128,0,0
0,570.803,0,0
0,601.239,0,0
0,632.431,0,0
0,664.376,0,0,0,9.6877
0,697.07,0,0
0,730.511,0,0
0,764.694,0,0
0,799.615,0,0
0,835.272,0,0,0,-12.0183
0,871.659,0,0
0,908.773,0,0
0,946.61,0,0
0,985.165,0,0,0,8.70935
0,1024.44,0,0
0,1064.42,0,0
0,1105.1,0,0
0,1146.49,0,0
0,1188.57,0,0
0,1231.35,0,0
0,1274.81,0,0
0,1318.96,0,0
0,1363.78,0,0,0,-12.2415
0,1409.28,0,0
0,1455.44,0,0
0,1502.27,0,0
0,1549.75,0,0
0,1597.89,0,0
0,1646.68,0,0
0,1696.1,0,0
0,1746.17,0,0
0,1796.86,0,0
0,1848.18,0,0
0,1900.12,0,0
0,1952.67,0,0
0,2005.83,0,0
0,2059.6,0,0
0,2113.96,0,0,1,9.40194
0,2168.91,0,0
0,2224.45,0,0
0,2280.56,0,0,0,11.1689
0,2337.25,0,0
0,2394.5,0,0
0,2452.31,0,0
0,2510.68,0,0
0,2569.59,0,0
0,2629.05,0,0
0,2689.04,0,0
0,2749.55,0,0
0,2810.59,0,0
0,2872.14,0,0
0,2934.2,0,0
0,2996.76,0,0
0,3059.81,0,0
0,3123.35,0,0
0,3187.37,0,0
0,3251.87,0,0
0,3316.82,0,0
0,3382.24,0,0
0,3448.11,0,0
0,3514.42,0,0
0,3581.17,0,0
0,3648.35,0,0
0,3715.96,0,0
0,3783.97,0,0
0,3852.4,0,0
0,3921.22,0,0,0,-14.0522
0,3990.44,0,0
0,4060.04,0,0
0,4130.02,0,0
0,4200.37,0,0
0,4271.08,0,0
0,4342.15,0,0
0,4413.56,0,0
0,4485.31,0,0
0,4557.39,0,0
0,4629.79,0,0
0,4702.51,0,0
0,4775.53,0,0
0,4848.86,0,0
0,4922.47,0,0
0,4996.37,0,0
0,5070.54,0,0
0,5144.98,0,0
0,5219.67,0,0,0,-8.81338
0,5294.62,0,0
0,5369.81,0,0
0,5445.23,0,0
0,5520.87,0,0
0,5596.74,0,0
0,5672.81,0,0
0,5749.08,0,0
0,5825.55,0,0
0,5902.2,0,0
0,5979.02,0,0
0,6056.01,0,0
0,6133.16,0,0
0,6210.46,0,0
0,6287.9,0,0
0,6365.47,0,0
0,6443.17,0,0
0,6520.98,0,0
0,6598.9,0,0
0,6676.92,0,0
0,6755.03,0,0
0,6833.22,0,0
0,6911.48,0,0
0,6989.81,0,0
0,7068.2,0,0
0,7146.63,0,0,0,9.05107
0,7225.1,0,0
0,7303.6,0,0
0,7382.12,0,0
0,7460.66,0,0
0,7539.2,0,0
0,7617.74,0,0
0,7696.26,0,0
0,7774.76,0,0
0,7853.23,0,0
0,7931.66,0,0
0,8010.05,0,0
0,8088.38,0,0
0,8166.64,0,0
0,8244.83,0,0
0,8322.94,0,0
0,8400.96,0,0
0,8478.88,0,0,0,13.8315
0,8556.7,0,0
0,8634.39,0,0
0,8711.97,0,0
0,8789.41,0,0
0,8866.71,0,0
0,8943.85,0,0
0,9020.84,0,0
0,9097.67,0,0
0,9174.32,0,0
0,9250.78,0,0
0,9327.05,0,0
0,9403.12,0,0
0,9478.99,0,0
0,9554.63,0,0
0,9630.06,0,0
0,9705.24,0,0,0,-12.496
0,9780.19,0,0
0,9854.89,0,0
0,9929.32,0,0
0,10003.5,0,0
0,10077.4,0,0
0,10151,0,0
0,10224.3,0,0
0,10297.4,0,0
0,10370.1,0,0
0,10442.5,0,0
0,10514.6,0,0,0,9.24119
0,10586.3,0,0
0,10657.7,0,0,0,-14.381
0,10728.8,0,0,0,13.4047
0,10799.5,0,0
0,10869.8,0,0
0,10939.8,0,0
0,11009.4,0,0
0,11078.6,0,0
0,11147.5,0,0
0,11215.9,0,0
0,11283.9,0,0
0,11351.5,0,0
0,11418.7,0,0
0,11485.4,0,0
0,11551.8,0,0
0,11617.6,0,0
0,11683,0,0
0,11748,0,0
0,11812.5,0,0
0,11876.5,0,0
0,11940.1,0,0
0,12003.1,0,0
0,12065.7,0,0
0,12127.7,0,0
0,12189.3,0,0
0,12250.3,0,0
0,12310.8,0,0
0,12370.8,0,0
0,12430.3,0,0
0,12489.2,0,0
0,12547.5,0,0
0,12605.4,0,0
0,12662.6,0,0
0,12719.3,0,0
0,12775.4,0,0
0,12831,0,0
0,12885.9,0,0
0,12940.3,0,0
0,12994,0,0
0,13047.2,0,0
0,13099.7,0,0
0,13151.7,0,0
0,13203,0,0,0,14.5263
0,13253.7,0,0,0,11.7604
0,13303.8,0,0
0,13353.2,0,0
0,13402,0,0
0,13450.1,0,0
0,13497.6,0,0
0,13544.4,0,0
0,13590.6,0,0
0,13636.1,0,0
0,13680.9,0,0
0,13725.1,0,0
0,13768.5,0,0
0,13811.3,0,0,0,10.4078
0,13853.4,0,0
0,13894.8,0,0
0,13935.4,0,0
0,13975.4,0,0
0,14014.7,0,0
0,14053.3,0,0
0,14091.1,0,0
0,14128.2,0,0
0,14164.6,0,0
0,14200.2,0,0,0,13.807
0,14235.2,0,0
0,14269.4,0,0
0,14302.8,0,0
0,14335.5,0,0
0,14367.4,0,0
0,14398.6,0,0
0,14429.1,0,0
0,14458.7,0,0
0,14487.6,0,0
0,14515.8,0,0
0,14543.2,0,0
0,14569.8,0,0
0,14595.6,0,0
0,14620.7,0,0
0,14644.9,0,0
0,14668.4,0,0
0,14691.1,0,0
0,14713,0,0
0,14734.1,0,0
0,14754.5,0,0
0,14774,0,0,0,-14.1255
0,14792.7,0,0,0,7.76698
0,14810.7,0,0,1,-7.82037
0,14827.8,0,0
0,14844.1,0,0
0,14859.7,0,0
0,14874.4,0,0
0,14888.3,0,0,0,-7.96202
0,14901.4,0,0,1,7.75174
0,14913.7,0,0
0,14925.1,0,0
0,14935.8,0,0
0,14945.6,0,0
0,14954.7,0,0
0,14962.9,0,0
0,14970.3,0,0,1,9.30209
0,14976.8,0,0
0,14982.6,0,0
0,14987.5,0,0
0,14991.6,0,0
0,14994.9,0,0
0,14997.4,0,0
0,14999,0,0,0,-11.8399
0,15000,0,0
0,15000,0,0
0,15000,0,0
0,15000,0,0
0,15000,0,0
0,15000,0,0
0,15000,0,0
0,15000,0,0
0,15000,0,0
0,15000,0,0
0,15000,0,0
0,15000,0,0,0,12.517
0,15000,0,0
0,15000,0,0
0,15000,0,0
0,15000,0,0
0,15000,0,0
0,15000,0,0
0,15000,0,0
0,15000,0,0
0,15000,0,0
0,15000,0,0,0,-14.3858
0,15000,0,0
0,15000,0,0
0,15000,0,0
0,15000,0,0
0,15000,0,0
0,15000,0,0
0,15000,0,0,1,8.07852
0,15000,0,0
0,15000,0,0,0,-10.9973
0,15000,0,0,0,10.3831
0,15000,0,0
0,15000,0,0
0,15000,0,0
0,15000,0,0
0,15000,0,0
0,15000,0,0
0,15000,0,0
0,15000,0,0
0,15000,0,0
0,15000,0,0
0,15000,0,0
0,15000,0,0
0,15000,0,0
0,15000,0,0
0,15000,0,0
0,15000,0,0
0,15000,0,0,1,-8.76953
0,15000,0,0
0,15000,0,0
0,15000,0,0,0,-9.18589
0,15000,0,0
0,15000,0,0
0,15000,0,0
0,15000,0,0
0,15000,0,0
0,15000,0,0
0,15000,0,0
0,15000,0,0
0,15000,0,0
0,15000,0,0
0,15000,0,0
0,15000,0,0
0,15000,0,0
0,15000,0,0
0,15000,0,0
0,15000,0,0
0,15000,0,0
0,15000,0,0
0,15000,0,0
0,15000,0,0
0,15000,0,0
0,15000,0,0
0,15000,0,0
0,15000,0,0
0,15000,0,0
0,15000,0,0,1,8.8998
0,15000,0,0
0,15000,0,0
0,15000,0,0
0,15000,0,0
0,15000,0,0
0,15000,0,0
0,15000,0,0
0,15000,0,0
0,15000,0,0,0,8.47904
0,15000,0,0,0,7.90789
0,15000,0,0,0,10.8042
0,15000,0,0
0,15000,0,0
0,15000,0,0
0,15000,0,0
0,15000,0,0
0,15000,0,0
0,15000,0,0
0,15000,0,0,0,-8.12771
0,15000,0,0
0,15000,0,0
0,15000,0,0
0,15000,0,0
0,15000,0,0
0,15000,0,0
0,15000,0,0
0,15000,0,0
0,15000,0,0
0,15000,0,0
0,15000,0,0
0,15000,0,0
0,15000,0,0,0,11.458
0,15000,0,0
0,15000,0,0
0,15000,0,0
0,15000,0,0
0,15000,0,0
0,15000,0,0
0,15000,0,0
0,15000,0,0
0,15000,0,0
0,15000,0,0
0,15000,0,0
0,15000,0,0
0,15000,0,0,0,11.0066
0,15000,0,0,0,-8.61253
0,15000,0,0
0,15000,0,0
0,15000,0,0
0,15000,0,0
0,15000,0,0,0,8.97435
0,15000,0,0,0,-10.8396
0,15000,0,0
0,15000,0,0
0,15000,0,0
0,15000,0,0
0,15000,0,0
0,15000,0,0
0,15000,0,0
0,15000,0,0
0,15000,0,0
0,15000,0,0
0,15000,0,0
0,15000,0,0
0,15000,0,0,0,12.0787
0,15000,0,0
0,15000,0,0
0,15000,0,0
0,15000,0,0
0,15000,0,0
0,15000,0,0
0,15000,0,0,0,8.65571
0,15000,0,0
0,15000,0,0,0,10.1616
0,15000,0,0
0,15000,0,0
0,15000,0,0
0,15000,0,0
0,15000,0,0
0,15000,0,0,0,-13.0815
0,15000,0,0
0,15000,0,0
0,15000,0,0
0,15000,0,0
0,15000,0,0
0,15000,0,0
0,15000,0,0
0,15000,0,0
0,15000,0,0
0,15000,0,0
0,15000,0,0
0,15000,0,0
0,15000,0,0
0,15000,0,0,0,-11.5366
0,15000,0,0
0,15000,0,0
0,15000,0,0
0,15000,0,0
0,15000,0,0
0,15000,0,0
0,15000,0,0
0,15000,0,0
0,15000,0,0
0,15000,0,0
0,15000,0,0
0,15000,0,0
0,15000,0,0
0,15000,0,0,0,-8.12339
0,15000,0,0
0,15000,0,0,0,-14.5637
0,15000,0,0
0,15000,0,0,0,12.856
0,15000,0,0
0,15000,0,0,1,9.22987
0,15000,0,0
0,15000,0,0
0,15000,0,0
0,15000,0,0
0,15000,0,0
0,15000,0,0
0,15000,0,0
0,15000,0,0
0,15000,0,0,0,-10.9004
0,15000,0,0
0,15000,0,0
0,15000,0,0
0,15000,0,0
0,15000,0,0
0,15000,0,0
0,15000,0,0
0,15000,0,0
0,15000,0,0
0,15000,0,0
0,15000,0,0
0,15000,0,0
0,15000,0,0
0,15000,0,0
0,15000,0,0
0,15000,0,0
0,15000,0,0
0,15000,0,0
0,15000,0,0
0,15000,0,0
0,15000,0,0
0,15000,0,0
0,15000,0,0
0,15000,0,0
0,15000,0,0
0,15000,0,0
0,15000,0,0
0,15000,0,0
0,15000,0,0
0,15000,0,0
0,15000,0,0
0,15000,0,0
0,15000,0,0
0,15000,0,0
0,15000,0,0
0,15000,0,0
0,15000,0,0
0,15000,0,0
0,15000,0,0
0,15000,0,0
0,15000,0,0
0,15000,0,0
0,15000,0,0
0,15000,0,0
0,15000,0,0
0,15000,0,0
0,15000,0,0
0,15000,0,0,0,13.6194
0,15000,0,0
0,15000,0,0
0,15000,0,0
0,15000,0,0
0,15000,0,0
0,15000,0,0
0,15000,0,0
0,15000,0,0
0,15000,0,0
0,15000,0,0
0,15000,0,0
0,15000,0,0
0,15000,0,0,0,11.7344
0,15000,0,0
0,15000,0,0
0,15000,0,0
0,15000,0,0,0,7.51779
0,15000,0,0
0,15000,0,0
0,15000,0,0
0,15000,0,0
0,15000,0,0
0,15000,0,0
0,15000,0,0
0,15000,0,0
0,15000,0,0
0,15000,0,0
0,15000,0,0
0,15000,0,0
0,15000,0,0
0,15000,0,0
0,15000,0,0
0,15000,0,0
0,15000,0,0
0,15000,0,0
0,15000,0,0
0,15000,0,0
0,15000,0,0
0,15000,0,0
0,15000,0,0
0,15000,0,0
0,15000,0,0
0,15000,0,0
0,15000,0,0
0,15000,0,0
0,15000,0,0
0,15000,0,0,0,11.8245
0,15000,0,0
0,15000,0,0
0,15000,0,0
0,15000,0,0
0,15000,0,0
0,15000,1.5708,0
0,15000,1.5708,0,0,-8.30697
0,15000,1.5708,0
0,15000,1.5708,0
0,15000,1.5708,0
0,15000,1.5708,0
0,15000,1.5708,0
0,15000,1.5708,0
0,15000,1.5708,0
0,15000,1.5708,0
0,15000,1.5708,0
0,15000,1.5708,0,0,11.8721
0,15000,1.5708,0,0,12.2828
0,15000,1.5708,0,0,7.61984
0,15000,1.5708,0
0,15000,1.5708,0
0,15000,1.5708,0
0,15000,1.5708,0
0,15000,1.5708,0
0,15000,1.5708,0
0,15000,1.5708,0
0,15000,1.5708,0
0,15000,1.5708,0
0,15000,1.5708,0
0,15000,1.5708,0
0,15000,1.5708,0
0,15000,1.5708,0
0,15000,1.5708,0
0,15000,1.5708,0
0,15000,1.5708,0
0,15000,1.5708,0
0,15000,1.5708,0
0,15000,1.5708,0
0,15000,1.5708,0
0,15000,1.5708,0
0,15000,1.5708,0
0,15000,1.5708,0
0,15000,1.5708,0
0,15000,1.5708,0
0,15000,1.5708,0
0,15000,1.5708,0
0,15000,1.5708,0
0,15000,1.5708,0
0,15000,1.5708,0
0,15000,1.5708,0,0,-11.9882
0,15000,1.5708,0
0,15000,1.5708,0
0,15000,1.5708,0
0,15000,1.5708,0
0,15000,1.5708,0
0,15000,1.5708,0
0,15000,1.5708,0
0,15000,1.5708,0,2,-11.0638
0,15000,1.5708,0
0,15000,1.5708,0
0,15000,1.5708,0
0,15000,1.5708,0
0,15000,1.5708,0
0,15000,1.5708,0
0,15000,1.5708,0
0,15000,1.5708,0
0,15000,1.5708,0,0,-10.402
0,15000,1.5708,0
0,15000,1.5708,0
0,15000,1.5708,0
0,15000,1.5708,0
0,15000,1.5708,0,1,8.85319
0,15000,1.5708,0
0,15000,1.5708,0
0,15000,1.5708,0
0,15000,1.5708,0
0,15000,1.5708,0
0,15000,1.5708,0
0,15000,1.5708,0
0,15000,1.5708,0
0,15000,1.5708,0
0,15000,1.5708,0
0,15000,1.5708,0
0,15000,1.5708,0
0,15000,1.5708,0
0,15000,1.5708,0
0,15000,1.5708,0
0,15000,1.5708,0
0,15000,1.5708,0
0,15000,1.5708,0
0,15000,1.5708,0
0,15000,1.5708,0
0,15000,1.5708,0
0,15000,1.5708,0
0,15000,1.5708,0
0,15000,1.5708,0
0,15000,1.5708,0
0,15000,1.5708,0
0,15000,1.5708,0,0,14.0827
0,15000,1.5708,0
0,15000,1.5708,0
0,15000,1.5708,0
0,15000,1.5708,0
0,15000,1.5708,0
0,15000,1.5708,0
0,15000,0,0
0,15000,0,0
0,15000,0,0
0,15000,0,0
0,15000,0,0
0,15000,0,0
0,15000,0,0
0,15000,0,0,0,8.65658
0,15000,0,0
0,15000,0,0
0,15000,0,0
0,15000,0,0
0,15000,0,0
0,15000,0,0
0,15000,0,0
0,15000,0,0
0,15000,0,0
0,15000,0,0
0,15000,0,0
0,15000,0,0
0,15000,0,0
0,15000,0,0
0,15000,0,0
0,15000,0,0
0,15000,0,0
0,15000,0,0
0,15000,0,0
0,15000,0,0
0,15000,0,0
0,15000,0,0
0,15000,0,0
0,15000,0,0,0,-10.5384
0,15000,0,0
0,15000,0,0
0,15000,0,0,0,-13.7038
0,15000,0,0,0,14.5062
0,15000,0,0,0,14.1832
0,15000,0,0
0,15000,0,0
0,15000,0,0
0,15000,0,0
0,15000,0,0
0,15000,0,0
0,15000,0,0
0,15000,0,0
0,15000,0,0
0,15000,0,0
0,15000,0,0
0,15000,0,0
0,15000,0,0
0,15000,-1.5708,0,0,10.5834
0,15000,-1.5708,0
0,15000,-1.5708,0
0,15000,-1.5708,0
0,15000,-1.5708,0
0,15000,-1.5708,0
0,15000,-1.5708,0,0,10.5999
0,15000,-1.5708,0,1,9.06264
0,15000,-1.5708,0
0,15000,-1.5708,0
0,15000,-1.5708,0
0,15000,-1.5708,0
0,15000,-1.5708,0
0,15000,-1.5708,0
0,15000,-1.5708,0
0,15000,-1.5708,0
0,15000,-1.5708,0
0,15000,-1.5708,0
0,15000,-1.5708,0,0,13.2903
0,15000,-1.5708,0
0,15000,-1.5708,0
0,15000,-1.5708,0
0,15000,-1.5708,0
0,15000,-1.5708,0
0,15000,-1.5708,0
0,15000,-1.5708,0
0,15000,-1.5708,0
0,15000,-1.5708,0
0,15000,-1.5708,0
0,15000,-1.5708,0
0,15000,-1.5708,0
0,15000,-1.5708,0
0,15000,-1.5708,0,0,13.3143
0,15000,-1.5708,0
0,15000,-1.5708,0,0,8.074
0,15000,-1.5708,0
0,15000,-1.5708,0
0,15000,-1.5708,0
0,15000,-1.5708,0
0,15000,-1.5708,0,0,-11.2104
0,15000,-1.5708,0
0,15000,-1.5708,0
0,15000,-1.5708,0,0,-12.3793
0,15000,-1.5708,0
0,15000,-1.5708,0
0,15000,-1.5708,0
0,15000,-1.5708,0
0,15000,-1.5708,0
0,15000,-1.5708,0
0,15000,-1.5708,0
0,15000,-1.5708,0
0,15000,-1.5708,0
0,15000,-1.5708,0
0,15000,-1.5708,0
0,15000,-1.5708,0
0,15000,-1.5708,0
0,15000,-1.5708,0
0,15000,-1.5708,0
0,15000,-1.5708,0
0,15000,-1.5708,0
0,15000,-1.5708,0
0,15000,-1.5708,0
0,15000,-1.5708,0
0,15000,-1.5708,0
0,15000,-1.5708,0
0,15000,-1.5708,0
0,15000,-1.5708,0
0,15000,-1.5708,0
0,15000,-1.5708,0
0,15000,-1.5708,0
0,15000,-1.5708,0
0,15000,-1.5708,0,0,-8.58635
0,15000,-1.5708,0
0,15000,-1.5708,0
0,15000,-1.5708,0
0,15000,-1.5708,0,0,-13.4516
0,15000,-1.5708,0
0,15000,-1.5708,0
0,15000,-1.5708,0
0,15000,-1.5708,0
0,15000,-1.5708,0
0,15000,-1.5708,0
0,15000,-1.5708,0
0,15000,-1.5708,0
0,15000,-1.5708,0
0,15000,-1.5708,0
0,15000,-1.5708,0
0,15000,-1.5708,0
0,15000,-1.5708,0
0,15000,-1.5708,0,0,-14.9549
0,15000,-1.5708,0
0,15000,-1.5708,0
0,15000,-1.5708,0
0,15000,-1.5708,0
0,15000,-1.5708,0
0,15000,-1.5708,0
0,15000,-1.5708,0
0,15000,-1.5708,0
0,15000,-1.5708,0
0,15000,-1.5708,0
0,15000,0,0
0,14999.2,0,0
0,14997.5,0,0
0,14995.1,0,0
0,14991.8,0,0,0,-9.81631
0,14987.7,0,0,0,13.6871
0,14982.7,0,0,0,-13.4973
0,14977,0,0
0,14970.4,0,0
0,14963,0,0
0,14954.8,0,0
0,14945.8,0,0
0,14935.9,0,0
0,14925.3,0,0
0,14913.8,0,0
0,14901.5,0,0
0,14888.4,0,0
0,14874.5,0,0
0,14859.8,0,0,0,-10.4553
0,14844.3,0,0
0,14827.9,0,0
0,14810.8,0,0
0,14792.9,0,0
0,14774.1,0,0
0,14754.6,0,0,0,11.6678
0,14734.3,0,0
0,14713.2,0,0
0,14691.2,0,0
0,14668.5,0,0
0,14645.1,0,0
0,14620.8,0,0
0,14595.7,0,0
0,14569.9,0,0
0,14543.3,0,0
0,14515.9,0,0
0,14487.8,0,0
0,14458.9,0,0
0,14429.2,0,0
0,14398.8,0,0
0,14367.6,0,0
0,14335.6,0,0
0,14302.9,0,0
0,14269.5,0,0,0,-9.37287
0,14235.3,0,0
0,14200.4,0,0
0,14164.7,0,0
0,14128.3,0,0
0,14091.2,0,0
0,14053.4,0,0
0,14014.8,0,0,0,-13.017
0,13975.6,0,0
0,13935.6,0,0
0,13894.9,0,0
0,13853.5,0,0
0,13811.4,0,0,0,14.9877
0,13768.7,0,0
0,13725.2,0,0
0,13681,0,0
0,13636.2,0,0
0,13590.7,0,0
0,13544.6,0,0
0,13497.7,0,0
0,13450.2,0,0
0,13402.1,0,0
0,13353.3,0,0
0,13303.9,0,0
0,13253.8,0,0
0,13203.1,0,0
0,13151.8,0,0
0,13099.9,0,0
0,13047.3,0,0
0,12994.2,0,0
0,12940.4,0,0
0,12886,0,0
0,12831.1,0,0
0,12775.6,0,0
0,12719.4,0,0
0,12662.8,0,0
0,12605.5,0,0
0,12547.7,0,0
0,12489.3,0,0
0,12430.4,0,0,0,-7.65484
0,12371,0,0
0,12311,0,0
0,12250.4,0,0
0,12189.4,0,0
0,12127.9,0,0
0,12065.8,0,0
0,12003.2,0,0
0,11940.2,0,0
0,11876.6,0,0
0,11812.6,0,0
0,11748.1,0,0
0,11683.2,0,0,0,-12.2582
0,11617.8,0,0,0,-13.424
0,11551.9,0,0
0,11485.6,0,0
0,11418.8,0,0,1,7.77994
0,11351.6,0,0
0,11284,0,0
0,11216,0,0
0,11147.6,0,0
0,11078.8,0,0
0,11009.6,0,0
0,10940,0,0
0,10870,0,0
0,10799.6,0,0
0,10728.9,0,0
0,10657.9,0,0
0,10586.4,0,0
0,10514.7,0,0
0,10442.6,0,0
0,10370.2,0,0,0,8.13987
0,10297.5,0,0
0,10224.5,0,0,0,-8.94898
0,10151.1,0,0
0,10077.5,0,0
0,10003.6,0,0
0,9929.46,0,0
0,9855.02,0,0
0,9780.33,0,0
0,9705.38,0,0
0,9630.19,0,0
0,9554.77,0,0,0,8.50617
0,9479.12,0,0
0,9403.26,0,0
0,9327.19,0,0
0,9250.92,0,0
0,9174.45,0,0
0,9097.8,0,0
0,9020.98,0,0
0,8943.99,0,0
0,8866.84,0,0,0,13.6896
0,8789.54,0,0
0,8712.1,0,0
0,8634.53,0,0
0,8556.83,0,0
0,8479.02,0,0
0,8401.1,0,0
0,8323.08,0,0
0,8244.97,0,0
0,8166.78,0,0
0,8088.51,0,0
0,8010.18,0,0
0,7931.8,0,0
0,7853.37,0,0
0,7774.9,0,0
0,7696.4,0,0
0,7617.87,0,0
0,7539.34,0,0
0,7460.8,0,0,0,13.1275
0,7382.26,0,0
0,7303.74,0,0
0,7225.24,0,0
0,7146.77,0,0
0,7068.34,0,0
0,6989.95,0,0
0,6911.62,0,0
0,6833.36,0,0
0,6755.17,0,0
0,6677.06,0,0,0,-14.9289
0,6599.04,0,0
0,6521.12,0,0
0,6443.3,0,0
0,6365.61,0,0,0,8.78086
0,6288.03,0,0,0,14.6868
0,6210.59,0,0
0,6133.3,0,0,0,9.06812
0,6056.15,0,0,0,9.8149
0,5979.16,0,0
0,5902.33,0,0
0,5825.68,0,0
0,5749.22,0,0
0,5672.95,0,0
0,5596.87,0,0
0,5521.01,0,0
0,5445.36,0,0,0,-9.63357
0,5369.94,0,0
0,5294.76,0,0
0,5219.81,0,0
0,5145.11,0,0
0,5070.68,0,0
0,4996.5,0,0
0,4922.61,0,0
0,4848.99,0,0
0,4775.67,0,0
0,4702.65,0,0
0,4629.93,0,0
0,4557.53,0,0,0,9.51764
0,4485.45,0,0
0,4413.7,0,0
0,4342.29,0,0
0,4271.22,0,0
0,4200.51,0,0
0,4130.16,0,0
0,4060.18,0,0
0,3990.58,0,0
0,3921.36,0,0
0,3852.54,0,0
0,3784.11,0,0
0,3716.09,0,0
0,3648.49,0,0
0,3581.31,0,0
0,3514.56,0,0
0,3448.25,0,0,0,-14.3349
0,3382.38,0,0
0,3316.96,0,0
0,3252,0,0
0,3187.51,0,0,0,-12.8181
0,3123.49,0,0
0,3059.95,0,0
0,2996.9,0,0
0,2934.34,0,0
0,2872.28,0,0
0,2810.73,0,0
0,2749.69,0,0
0,2689.17,0,0
0,2629.19,0,0
0,2569.73,0,0,0,13.5348
0,2510.82,0,0
0,2452.45,0,0
0,2394.64,0,0
0,2337.39,0,0
0,2280.7,0,0
0,2224.58,0,0
0,2169.05,0,0
0,2114.1,0,0
0,2059.74,0,0,0,-11.0702
0,2005.97,0,0
0,1952.81,0,0
0,1900.26,0,0
0,1848.32,0,0
0,1797,0,0
0,1746.3,0,0,0,12.7957
0,1696.24,0,0
0,1646.81,0,0,0,-13.4478
0,1598.03,0,0,1,-8.09614
0,1549.89,0,0
0,1502.41,0,0
0,1455.58,0,0
0,1409.41,0,0
0,1363.92,0,0
0,1319.09,0,0
0,1274.95,0,0
0,1231.48,0,0
0,1188.71,0,0
0,1146.62,0,0
0,1105.24,0,0
0,1064.55,0,0
0,1024.57,0,0,0,-12.6557
0,985.302,0,0
0,946.746,0,0
0,908.91,0,0
0,871.795,0,0
0,835.408,0,0
0,799.752,0,0
0,764.83,0,0
0,730.647,0,0
0,697.207,0,0
0,664.512,0,0
0,632.567,0,0
0,601.375,0,0
0,570.94,0,0
0,541.264,0,0
0,512.352,0,0
0,484.206,0,0
0,456.829,0,0
0,430.225,0,0
0,404.395,0,0
0,379.344,0,0
0,355.074,0,0
0,331.588,0,0
0,308.887,0,0
0,286.975,0,0
0,265.854,0,0
0,245.527,0,0
0,225.995,0,0
0,207.26,0,0
0,189.326,0,0
0,172.193,0,0
0,155.863,0,0
0,140.339,0,0
0,125.623,0,0
0,111.714,0,0,0,-13.632
0,98.6164,0,0
0,86.33,0,0
0,74.8567,0,0
0,64.1976,0,0
0,54.354,0,0
0,45.3268,0,0
0,37.1172,0,0
0,29.7259,0,0
0,23.1539,0,0
0,17.4018,0,0
0,12.4702,0,0
0,8.35977,0,0
0,5.07086,0,0
0,2.60386,0,0
0,0.95905,0,0
0,0,0,0
0,0,0,0
0,0,0,0
0,0,0,0
0,0,0,0
0,0,0,0,0,-14.3678
0,0,0,0
0,0,0,0
0,0,0,0
0,0,0,0
0,0,0,0
0,0,0,0
0,0,0,0
0,0,0,0
0,0,0,0,0,11.7442
0,0,0,0
0,0,0,0
0,0,0,0
0,0,0,0
0,0,0,0
0,0,0,0
0,0,0,0
0,0,0,0
0,0,0,0
0,0,0,0,0,13.2742
0,0,0,0
0,0,0,0
0,0,0,0
0,0,0,0,0,-14.5477
0,0,0,0
0,0,0,0
0,0,0,0
0,0,0,0
0,0,0,0
0,0,0,0
0,0,0,0
0,0,0,0
0,0,0,0
0,0,0,0
0,0,0,0
0,0,0,0
0,0,0,0
0,0,0,0,0,7.52337
0,0,0,0
0,0,0,0
0,0,0,0
0,0,0,0
0,0,0,0
0,0,0,0
0,0,0,0
0,0,0,0
0,0,0,0
0,0,0,0
0,0,0,0
0,0,0,0
0,0,0,0
0,0,0,0
0,0,0,0,0,14.2978
0,0,0,0
0,0,0,0
0,0,0,0
0,0,0,0
0,0,0,0
0,0,0,0
0,0,0,0
0,0,0,0
0,0,0,0
0,0,0,0
0,0,0,0
0,0,0,0
0,0,0,0
0,0,0,0
0,0,0,0
0,0,0,0
0,0,0,0,0,12.562
0,0,0,0
0,0,0,0
0,0,0,0
0,0,0,0
0,0,0,0
0,0,0,0
0,0,0,0
0,0,0,0,0,-14.0104
0,0,0,0
0,0,0,0
0,0,0,0
0,0,0,0
0,0,0,0,0,-8.47562
0,0,0,0
0,0,0,0
0,0,0,0
0,0,0,0
0,0,0,0
0,0,0,0
0,0,0,0
0,0,0,0
0,0,0,0
0,0,0,0
0,0,0,0
0,0,0,0
0,0,0,0
0,0,-1.0472,0,0,-10.2949
0,0,-1.0472,0
0,0,-1.0472,0
0,0,-1.0472,0
0,0,-1.0472,0
0,0,-1.0472,0
0,0,-1.0472,0
0,0,-1.0472,0
0,0,-1.0472,0
0,0,-1.0472,0
0,0,-1.0472,0
0,0,-1.0472,0
0,0,-1.0472,0
0,0,-1.0472,0
0,0,-1.0472,0,0,13.6924
0,0,-1.0472,0
0,0,-1.0472,0
0,0,-1.0472,0
0,0,-1.0472,0
0,0,-1.0472,0
0,0,-1.0472,0
0,0,-1.0472,0
0,0,-1.0472,0
0,0,-1.0472,0
0,0,-1.0472,0
0,0,-1.0472,0
0,0,-1.0472,0
0,0,-1.0472,0
0,0,-1.0472,0
0,0,-1.0472,0
0,0,-1.0472,0
0,0,-1.0472,0
0,0,-1.0472,0
0,0,-1.0472,0
0,0,-1.0472,0,0,-13.6322
0,0,-1.0472,0
0,0,-1.0472,0
0,0,-1.0472,0
0,0,-1.0472,0
0,0,-1.0472,0
0,0,-1.0472,0
0,0,-1.0472,0
0,0,-1.0472,0
0,0,-1.0472,0
0,0,-1.0472,0
0,0,-1.0472,0
0,0,-1.0472,0
0,0,-1.0472,0
0,0,-1.0472,0
0,0,-1.0472,0
0,0,-1.0472,0
0,0,-1.0472,0
0,0,-1.0472,0
0,0,-1.0472,0
0,0,-1.0472,0
0,0,-1.0472,0
0,0,-1.0472,0,0,-9.70735
0,0,-1.0472,0
0,0,-1.0472,0
0,0,-1.0472,0
0,0,-1.0472,0
0,0,-1.0472,0,0,-9.92498
0,0,-1.0472,0
0,0,-1.0472,0
0,0,-1.0472,0
0,0,-1.0472,0
0,0,-1.0472,0
0,0,-1.0472,0
0,0,-1.0472,0,1,-8.08767
0,0,-1.0472,0
0,0,-1.0472,0
0,0,-1.0472,0
0,0,-1.0472,0
0,0,-1.0472,0
0,0,-1.0472,0
0,0,-1.0472,0
0,0,-1.0472,0
0,0,-1.0472,0
0,0,-1.0472,0
0,0,-1.0472,0,0,9.88659
0,0,-1.0472,0
0,0,-1.0472,0
0,0,-1.0472,0
0,0,-1.0472,0,0,-11.845
0,0,-1.0472,0
0,0,-1.0472,0,0,10.5063
0,0,-1.0472,0
0,0,-1.0472,0
0,0,-1.0472,0
0,0,-1.0472,0
0,0,-1.0472,0
0,0,-1.0472,0
0,0,-1.0472,0
0,0,-1.0472,0
0,0,-1.0472,0
0,0,-1.0472,0
0,0,-1.0472,0
0,0,-1.0472,0
0,0,-1.0472,0
0,0,-1.0472,0
0,0,-1.0472,0
0,0,-1.0472,0
0,0,-1.0472,0
0,0,-1.0472,0
0,0,-1.0472,0
0,0,-1.0472,0
0,0,-1.0472,0
0,0,-1.0472,0
0,0,-1.0472,0
0,0,-1.0472,0
0,0,-1.0472,0,0,-14.662
0,0,-1.0472,0
0,0,-1.0472,0
0,0,-1.0472,0
0,0,-1.0472,0
0,0,-1.0472,0,0,-9.24161
0,0,-1.0472,0
0,0,-1.0472,0
0,0,-1.0472,0
0,0,-1.0472,0
0,0,-1.0472,0
0,0,-1.0472,0
0,0,-1.0472,0
0,0,-1.0472,0,0,13.0386
0,0,-1.0472,0
0,0,-1.0472,0
0,0,-1.0472,0
0,0,-1.0472,0
0,0,-1.0472,0
0,0,-1.0472,0
0,0,-1.0472,0
0,0,-1.0472,0
0,0,-1.0472,0
0,0,-1.0472,0
0,0,-1.0472,0
0,0,-1.0472,0
0,0,-1.0472,0,1,-8.21694
0,0,-1.0472,0
0,0,-1.0472,0
0,0,-1.0472,0
0,0,-1.0472,0
0,0,-1.0472,0
0,0,-1.0472,0
0,0,-1.0472,0
0,0,-1.0472,0
0,0,-1.0472,0
0,0,-1.0472,0,0,12.4812
0,0,-1.0472,0,0,-10.3628
0,0,-1.0472,0
0,0,-1.0472,0
0,0,-1.0472,0,0,10.8973
0,0,-1.0472,0
0,0,-1.0472,0
0,0,-1.0472,0
0,0,-1.0472,0
0,0,-1.0472,0,0,9.5549
0,0,-1.0472,0
0,0,-1.0472,0
0,0,-1.0472,0
0,0,-1.0472,0
0,0,-1.0472,0
0,0,-1.0472,0
0,0,-1.0472,0
0,0,-1.0472,0
0,0,-1.0472,0
0,0,-1.0472,0
0,0,-1.0472,0
0,0,-1.0472,0
0,0,-1.0472,0
0,0,-1.0472,0
0,0,-1.0472,0
0,0,-1.0472,0
0,0,-1.0472,0
0,0,-1.0472,0
0,0,-1.0472,0
0,0,-1.0472,0
0,0,-1.0472,0
0,0,-1.0472,0
0,0,-1.0472,0
0,0,-1.0472,0
0,0,-1.0472,0,0,-12.1714
0,0,-1.0472,0
0,0,-1.0472,0
0,0,-1.0472,0
0,0,-1.0472,0
0,0,-1.0472,0
0,0,-1.0472,0
0,0,-1.0472,0
0,0,-1.0472,0
0,0,-1.0472,0
0,0,-1.0472,0
0,0,-1.0472,0
0,0,-1.0472,0
0,0,-1.0472,0
0,0,-1.0472,0
0,0,-1.0472,0
0,0,-1.0472,0
0,0,-1.0472,0
0,0,-1.0472,0
0,0,-1.0472,0
0,0,-1.0472,0
0,0,-1.0472,0
0,0,-1.0472,0
0,0,-1.0472,0
0,0,-1.0472,0
0,0,-1.0472,0
0,0,-1.0472,0
0,0,-1.0472,0
0,0,-1.0472,0
0,0,-1.0472,0
0,0,-1.0472,0
0,0,-1.0472,0,0,7.67399
0,0,-1.0472,0,0,9.66869
0,0,-1.0472,0
0,0,-1.0472,0
0,0,-1.0472,0
0,0,-1.0472,0
0,0,-1.0472,0
0,0,-1.0472,0
0,0,-1.0472,0
0,0,-1.0472,0
0,0,-1.0472,0
0,0,-1.0472,0,0,-12.3074
0,0,-1.0472,0
0,0,-1.0472,0
0,0,-1.0472,0,0,9.16514
0,0,-1.0472,0
0,0,-1.0472,0
0,0,-1.0472,0
0,0,-1.0472,0
0,0,-1.0472,0
0,0,-1.0472,0
0,0,-1.0472,0,0,-10.4296
0,0,-1.0472,0
0,0,-1.0472,0
0,0,-1.0472,0
0,0,-1.0472,0,0,-13.8392
0,0,-1.0472,0
0,0,-1.0472,0
0,0,-1.0472,0
0,0,-1.0472,0
0,0,-1.0472,0
0,0,-1.0472,0
0,0,-1.0472,0
0,0,-1.0472,0
0,0,-1.0472,0
0,0,-1.0472,0,0,-8.69063
0,0,-1.0472,0
0,0,-1.0472,0
0,0,-1.0472,0
0,0,-1.0472,0
0,0,-1.0472,0,0,14.6124
0,0,-1.0472,0
0,0,-1.0472,0
0,0,-1.0472,0
0,0,-1.0472,0
0,0,-1.0472,0
0,0,-1.0472,0
0,0,-1.0472,0,0,11.0995
0,0,-1.0472,0
0,0,-1.0472,0
0,0,-1.0472,0
0,0,-1.0472,0
0,0,-1.0472,0
0,0,-1.0472,0,0,9.94843
0,0,-1.0472,0
0,0,-1.0472,0
0,0,-1.0472,0
0,0,-1.0472,0
0,0,-1.0472,0
0,0,-1.0472,0,0,-8.44338
0,0,-1.0472,0
0,0,-1.0472,0
0,0,-1.0472,0
0,0,-1.0472,0
0,0,-1.0472,0
0,0,-1.0472,0
0,0,-1.0472,0
0,0,-1.0472,0
0,0,-1.0472,0
0,0,-1.0472,0
0,0,-1.0472,0
0,0,-1.0472,0
0,0,-1.0472,0
0,0,-1.0472,0
0,0,-1.0472,0
0,0,-1.0472,0
0,0,-1.0472,0
0,0,-1.0472,0
0,0,-1.0472,0
0,0,-1.0472,0
0,0,-1.0472,0
0,0,-1.0472,0
0,0,-1.0472,0
0,0,-1.0472,0
0,0,-1.0472,0
0,0,-1.0472,0
0,0,-1.0472,0,0,-14.5206
0,0,-1.0472,0
0,0,-1.0472,0
0,0,0,0
0,0,0,0
0,0,0,0
0,0,0,0
0,0,0,0
0,0,0,0
0,0,0,0
0,0,0,0
0,0,0,0
0,0,0,0
0,0,0,0
0,0,0,0
0,0,0,0
0,0,0,0
0,0,0,0
0,0,0,0
0,0,0,0
0,0,0,0
0,0,0,0
0,0,0,0
0,0,0,0
0,0,0,0
0,0,0,0
0,0,0,0,0,10.1466
0,0,0,0
0,0,0,0
0,0,0,0,0,-12.7111
0,0,0,0
0,0,0,0
0,0,0,0
0,0,0,0
0,0,0,0
0,0,0,0
0,0,0,0
0,0,0,0
0,0,0,0,0,8.56218
0,0,0,0,0,-13.1781
0,0,0,0
0,0,0,0
0,0,0,0
0,0,0,0
0,0,0,0
0,0,0,0
0,0,0,0
0,0,0,0
0,0,0,0
0,0,0,0
0,0,0,0
0,0,0,0
0,0,0,0
0,0,0,0
0,0,0,0
0,0,0,0
0,0,0,0
0,0,0,0
0,0,0,0,0,-14.8182
0,0,0,0,0,-14.0048
0,0,0,0,0,10.3946
0,0,0,0
0,0,0,0,2,14.5057
0,0,0,0
0,0,0,0
0,0,0,0
0,0,0,0
0,0,0,0
0,0,0,0
0,0,0,0
0,0,0,0
0,0,0,0
0,0,0,0
0,0,0,0
0,0,0,0
0,0,0,0
0,0,0,0
0,0,0,0
0,0,0,0
0,0,0,0,0,-11.8096
0,0,0,0
0,0,0,0
0,0,0,0
0,0,0,0
0,0,0,0
0,0,0,0
0,0,0,0
0,0,0,0,0,10.5632
0,0,0,0
0,0,0,0
0,0,0,0,0,-7.74931
0,0,0,0,0,-12.0208
0,0,0,0
0,0,0,0
0,0,0,0
0,0,0,0
0,0,0,0
0,0,0,0,0,-8.93503
0,0,0,0
0,0,0,0
0,0,0,0
0,0,0,0
0,0,0,0,1,-7.91172
0,0,-1.0472,0
0,0,-1.0472,0
0,0,-1.0472,0
0,0,-1.0472,0,0,10.3783
0,0,-1.0472,0
0,0,-1.0472,0
0,0,-1.0472,0
0,0,-1.0472,0
0,0,-1.0472,0
0,0,-1.0472,0
0,0,-1.0472,0,0,-11.3928
0,0,-1.0472,0
0,0,-1.0472,0
0,0,-1.0472,0
0,0,-1.0472,0
0,0,-1.0472,0,0,-14.3666
0,0,-1.0472,0
0,0,-1.0472,0,0,-13.4331
0,0,-1.0472,0
0,0,-1.0472,0
0,0,-1.0472,0,0,-10.499
0,0,-1.0472,0
0,0,-1.0472,0,0,12.4677
0,0,-1.0472,0
0,0,-1.0472,0
0,0,-1.0472,0
0,0,-1.0472,0
0,0,-1.0472,0
0,0,-1.0472,0
0,0,-1.0472,0
0,0,-1.0472,0,0,13.0421
0,0,-1.0472,0,0,8.96245
0,0,-1.0472,0
0,0,-1.0472,0
0,0,-1.0472,0
0,0,-1.0472,0
0,0,-1.0472,0
0,0,-1.0472,0,1,8.74854
0,0,-1.0472,0
0,0,-1.0472,0
0,0,-1.0472,0
0,0,-1.0472,0
0,0,-1.0472,0
0,0,-1.0472,0
0,0,-1.0472,0
0,0,-1.0472,0
0,0,-1.0472,0
0,0,-1.0472,0
0,0,-1.0472,0
0,0,-1.0472,0
0,0,-1.0472,0
0,0,-1.0472,0
0,0,-1.0472,0
0,0,-1.0472,0,1,9.3366
0,0,-1.0472,0
0,0,-1.0472,0
0,0,-1.0472,0
0,0,-1.0472,0
0,0,-1.0472,0
0,0,-1.0472,0
0,0,-1.0472,0
0,0,-1.0472,0
0,0,-1.0472,0
0,0,-1.0472,0
0,0,-1.0472,0
0,0,-1.0472,0
0,0,-1.0472,0
0,0,-1.0472,0
0,0,-1.0472,0
0,0,-1.0472,0
0,0,-1.0472,0
0,0,-1.0472,0
0,0,-1.0472,0
0,0,-1.0472,0,0,-11.4353
0,0,-1.0472,0
0,0,-1.0472,0
0,0,-1.0472,0,0,10.5153
0,0,-1.0472,0
0,0,-1.0472,0
0,0,-1.0472,0
0,0,-1.0472,0
0,0,-1.0472,0
0,0,-1.0472,0
0,0,-1.0472,0
0,0,-1.0472,0
0,0,-1.0472,0
0,0,-1.0472,0,0,-10.6735
0,0,-1.0472,0
0,0,-1.0472,0
0,0,-1.0472,0
0,0,-1.0472,0
0,0,-1.0472,0
0,0,-1.0472,0
0,0,-1.0472,0
0,0,-1.0472,0
0,0,-1.0472,0
0,0,-1.0472,0
0,0,-1.0472,0
0,0,-1.0472,0,0,13.0489
0,0,-1.0472,0
0,0,-1.0472,0
0,0,-1.0472,0
0,0,-1.0472,0,0,-11.7326
0,0,-1.0472,0
0,0,-1.0472,0
0,0,-1.0472,0
0,0,-1.0472,0
0,0,-1.0472,0
0,0,-1.0472,0
0,0,-1.0472,0
0,0,-1.0472,0
0,0,-1.0472,0,0,13.3656
0,0,-1.0472,0,0,-11.48
0,0,-1.0472,0
0,0,-1.0472,0
0,0,-1.0472,0
0,0,-1.0472,0
0,0,-1.0472,0,0,-11.942
0,0,-1.0472,0
0,0,-1.0472,0
0,0,-1.0472,0
0,0,-1.0472,0
0,0,-1.0472,0
0,0,-1.0472,0
0,0,-1.0472,0
0,0,-1.0472,0
0,0,-1.0472,0
0,0,-1.0472,0
0,0,-1.0472,0,0,-13.7353
0,0,-1.0472,0
0,0,-1.0472,0
0,0,-1.0472,0
0,0,-1.0472,0
0,0,-1.0472,0
0,0,-1.0472,0
0,0,-1.0472,0
0,0,-1.0472,0,0,-14.6189
0,0,-1.0472,0
0,0,-1.0472,0
0,0,-1.0472,0
0,0,-1.0472,0
0,0,-1.0472,0
0,0,-1.0472,0
0,0,-1.0472,0,0,-9.09828
0,0,-1.0472,0
0,0,-1.0472,0
0,0,-1.0472,0
0,0,-1.0472,0
0,0,-1.0472,0
0,0,-1.0472,0
0,0,-1.0472,0
0,0,-1.0472,0,1,-9.72734
0,0,-1.0472,0
0,0,-1.0472,0
0,0,-1.0472,0
0,0,-1.0472,0
0,0,-1.0472,0
0,0,-1.0472,0
0,0,-1.0472,0
0,0,-1.0472,0
0,0,-1.0472,0,0,-9.87483
0,0,-1.0472,0
0,0,-1.0472,0
0,0,-1.0472,0
0,0,-1.0472,0
0,0,-1.0472,0
0,0,-1.0472,0
0,0,-1.0472,0
0,0,-1.0472,0
0,0,-1.0472,0
0,0,-1.0472,0
0,0,-1.0472,0
0,0,-1.0472,0
0,0,-1.0472,0
0,0,-1.0472,0,0,-14.1601
0,0,-1.0472,0
0,0,-1.0472,0,0,-13.0697
0,0,-1.0472,0,0,-12.4812
0,0,-1.0472,0
0,0,-1.0472,0
0,0,-1.0472,0,0,-7.72595
0,0,-1.0472,0
0,0,-1.0472,0
0,0,-1.0472,0
0,0,-1.0472,0
0,0,-1.0472,0
0,0,-1.0472,0
0,0,-1.0472,0
0,0,-1.0472,0
0,0,-1.0472,0
0,0,-1.0472,0
0,0,-1.0472,0
0,0,-1.0472,0
0,0,-1.0472,0
0,0,-1.0472,0
0,0,-1.0472,0
0,0,-1.0472,0
0,0,-1.0472,0
0,0,-1.0472,0
0,0,-1.0472,0
0,0,-1.0472,0
0,0,-1.0472,0
0,0,-1.0472,0
0,0,-1.0472,0
0,0,-1.0472,0
0,0,-1.0472,0
0,0,-1.0472,0
0,0,-1.0472,0
0,0,-1.0472,0
0,0,-1.0472,0
0,0,-1.0472,0
0,0,-1.0472,0
0,0,-1.0472,0,0,10.1576
0,0,-1.0472,0
0,0,-1.0472,0
0,0,-1.0472,0
0,0,-1.0472,0
0,0,-1.0472,0
0,0,-1.0472,0
0,0,-1.0472,0
0,0,-1.0472,0
0,0,-1.0472,0
0,0,-1.0472,0
0,0,-1.0472,0
0,0,-1.0472,0
0,0,-1.0472,0
0,0,-1.0472,0
0,0,-1.0472,0
0,0,-1.0472,0
0,0,-1.0472,0
0,0,-1.0472,0
0,0,-1.0472,0
0,0,-1.0472,0
0,0,-1.0472,0
0,0,-1.0472,0
0,0,-1.0472,0
0,0,-1.0472,0
0,0,-1.0472,0
0,0,-1.0472,0
0,0,-1.0472,0,0,14.3526
0,0,-1.0472,0
0,0,-1.0472,0
0,0,-1.0472,0
0,0,-1.0472,0,0,-14.5014
0,0,-1.0472,0
0,0,-1.0472,0
0,0,-1.0472,0
0,0,-1.0472,0
0,0,-1.0472,0,0,13.5301
0,0,-1.0472,0
0,0,-1.0472,0
0,0,-1.0472,0
0,0,-1.0472,0
0,0,-1.0472,0
0,0,-1.0472,0
0,0,-1.0472,0
0,0,-1.0472,0
0,0,-1.0472,0
0,0,-1.0472,0,0,10.905
0,0,-1.0472,0,0,-11.3467
0,0,-1.0472,0
0,0,-1.0472,0
0,0,-1.0472,0
0,0,-1.0472,0
0,0,-1.0472,0
0,0,-1.0472,0
0,0,-1.0472,0
0,0,-1.0472,0
0,0,-1.0472,0,0,13.6224
0,0,-1.0472,0
0,0,-1.0472,0
0,0,-1.0472,0
0,0,-1.0472,0,0,-14.7791
0,0,-1.0472,0
0,0,-1.0472,0
0,0,-1.0472,0
0,0,-1.0472,0
0,0,-1.0472,0
0,0,-1.0472,0
0,0,-1.0472,0
0,0,-1.0472,0
0,0,-1.0472,0
0,0,-1.0472,0,0,-12.001
0,0,-1.0472,0
0,0,-1.0472,0
0,0,-1.0472,0
0,0,-1.0472,0
0,0,-1.0472,0
0,0,-1.0472,0
0,0,-1.0472,0,1,-8.25578
0,0,-1.0472,0
0,0,-1.0472,0,0,12.896
0,0,-1.0472,0
0,0,-1.0472,0
0,0,-1.0472,0
0,0,-1.0472,0
0,0,-1.0472,0
0,0,-1.0472,0
0,0,-1.0472,0,0,-9.66243
0,0,-1.0472,0
0,0,0,0
0,0,0,0,0,-12.8665
0,0,0,0
0,0,0,0
0,0,0,0
0,0,0,0
0,0,0,0
0,0,0,0
0,0,0,0
0,0,0,0
0,0,0,0
0,0,0,0
0,0,0,0
0,0,0,0
0,0,0,0
0,0,0,0,0,-12.3616
0,0,0,0
0,0,0,0
0,0,0,0
0,0,0,0
0,0,0,0
0,0,0,0
0,0,0,0
0,0,0,0
0,0,0,0
0,0,0,0
0,0,0,0
0,0,0,0
0,0,0,0
0,0,0,0
0,0,0,0
0,0,0,0
0,0,0,0
0,0,0,0
0,0,0,0
0,0,0,0
0,0,0,0
0,0,0,0
0,0,0,0
0,0,0,0
0,0,0,0
0,0,0,0
0,0,0,0
0,0,0,0
0,0,0,0
0,0,0,0
0,0,0,0
0,0,0,0
0,0,0,0
0,0,0,0
0,0,0,0
0,0,0,0
0,0,0,0,0,-8.07827
0,0,0,0
0,0,0,0
0,0,0,0
0,0,0,0,0,10.6786
0,0,0,0
0,0,0,0
0,0,0,0
0,0,0,0
0,0,0,0,0,14.8625
0,0,0,0,0,14.5752
0,0,0,0
0,0,0,0
0,0,0,0
0,0,0,0
0,0,0,0
0,0,0,0
0,0,0,0,0,-11.7042
0,0,0,0
0,0,0,0
0,0,0,0
0,0,0,0
0,0,0,0
0,0,0,0
0,0,0,0
0,0,0,0
0,0,0,0
0,0,0,0
0,0,0,0
0,0,0,0
0,0,0,0
0,0,0,0
0,0,0,0
0,0,0,0
0,0,0,0
0,0,0,0
0,0,0,0
0,0,0,0
0,0,0,0,1,7.97983
0,0,0,0
0,0,0,0
0,0,0,0
0,0,0,0
0,0,0,0,0,-10.6537
0,0,0,0
0,0,0,0
0,0,0,0
0,0,0,0
0,0,1.0472,0
0,0,1.0472,0
0,0,1.0472,0
0,0,1.0472,0,0,-13.2518
0,0,1.0472,0
0,0,1.0472,0,0,10.5441
0,0,1.0472,0
0,0,1.0472,0
0,0,1.0472,0
0,0,1.0472,0
0,0,1.0472,0,0,-8.52876
0,0,1.0472,0
0,0,1.0472,0
0,0,1.0472,0,0,14.535
0,0,1.0472,0
0,0,1.0472,0
0,0,1.0472,0
0,0,1.0472,0
0,0,1.0472,0
0,0,1.0472,0
0,0,1.0472,0
0,0,1.0472,0
0,0,1.0472,0
0,0,1.0472,0,0,-7.61946
0,0,1.0472,0
0,0,1.0472,0
0,0,1.0472,0
0,0,1.0472,0
0,0,1.0472,0,0,-10.3454
0,0,1.0472,0
0,0,1.0472,0
0,0,1.0472,0
0,0,1.0472,0
0,0,1.0472,0
0,0,1.0472,0
0,0,1.0472,0
0,0,1.0472,0
0,0,1.0472,0,0,12.8331
0,0,1.0472,0
0,0,1.0472,0
0,0,1.0472,0
0,0,1.0472,0
0,0,1.0472,0
0,0,1.0472,0
0,0,1.0472,0,0,8.27677
0,0,1.0472,0
0,0,1.0472,0
0,0,1.0472,0
0,0,1.0472,0
0,0,1.0472,0
0,0,1.0472,0,0,12.0066
0,0,1.0472,0
0,0,1.0472,0,0,13.4886
0,0,1.0472,0
0,0,1.0472,0
0,0,1.0472,0
0,0,1.0472,0
0,0,1.0472,0,0,-10.4451
0,0,1.0472,0
0,0,1.0472,0,0,8.66356
0,0,1.0472,0
0,0,1.0472,0
0,0,1.0472,0
0,0,1.0472,0
0,0,1.0472,0
0,0,1.0472,0
0,0,1.0472,0
0,0,1.0472,0
0,0,1.0472,0
0,0,1.0472,0
0,0,1.0472,0
0,0,1.0472,0
0,0,1.0472,0
0,0,1.0472,0
0,0,1.0472,0
0,0,1.0472,0
0,0,1.0472,0
0,0,1.0472,0
0,0,1.0472,0
0,0,1.0472,0
0,0,1.0472,0
0,0,1.0472,0
0,0,1.0472,0
0,0,1.0472,0
0,0,1.0472,0
0,0,1.0472,0
0,0,1.0472,0
0,0,1.0472,0
0,0,1.0472,0
0,0,1.0472,0
0,0,1.0472,0
0,0,1.0472,0
0,0,1.0472,0
0,0,1.0472,0
0,0,1.0472,0
0,0,1.0472,0
0,0,1.0472,0
0,0,1.0472,0
0,0,1.0472,0
0,0,1.0472,0
0,0,1.0472,0
0,0,1.0472,0
0,0,1.0472,0
0,0,1.0472,0
0,0,1.0472,0
0,0,1.0472,0
0,0,1.0472,0
0,0,1.0472,0
0,0,1.0472,0
0,0,1.0472,0
0,0,1.0472,0
0,0,1.0472,0
0,0,1.0472,0
0,0,1.0472,0,0,-13.8038
0,0,1.0472,0
0,0,1.0472,0
0,0,1.0472,0
0,0,1.0472,0
0,0,1.0472,0
0,0,1.0472,0
0,0,1.0472,0
0,0,1.0472,0
0,0,1.0472,0
0,0,1.0472,0
0,0,1.0472,0
0,0,1.0472,0,0,-12.8036
0,0,1.0472,0
0,0,1.0472,0
0,0,1.0472,0
0,0,1.0472,0
0,0,1.0472,0
0,0,1.0472,0
0,0,1.0472,0
0,0,1.0472,0
0,0,1.0472,0
0,0,1.0472,0
0,0,1.0472,0,0,11.9304
0,0,1.0472,0
0,0,1.0472,0
0,0,1.0472,0
0,0,1.0472,0
0,0,1.0472,0
0,0,1.0472,0
0,0,1.0472,0
0,0,1.0472,0
0,0,1.0472,0
0,0,1.0472,0
0,0,1.0472,0
0,0,1.0472,0
0,0,1.0472,0
0,0,1.0472,0
0,0,1.0472,0,0,12.0462
0,0,1.0472,0
0,0,1.0472,0
0,0,1.0472,0,0,11.9544
0,0,1.0472,0
0,0,1.0472,0
0,0,1.0472,0
0,0,1.0472,0
0,0,1.0472,0
0,0,1.0472,0
0,0,1.0472,0
0,0,1.0472,0
0,0,1.0472,0
0,0,1.0472,0
0,0,1.0472,0
0,0,1.0472,0
0,0,1.0472,0
0,0,1.0472,0
0,0,1.0472,0
0,0,1.0472,0
0,0,1.0472,0
0,0,1.0472,0
0,0,1.0472,0
0,0,1.0472,0
0,0,1.0472,0
0,0,1.0472,0
0,0,1.0472,0
0,0,1.0472,0
0,0,1.0472,0
0,0,1.0472,0
0,0,1.0472,0
0,0,1.0472,0
0,0,1.0472,0
0,0,1.0472,0,0,8.85679
0,0,1.0472,0
0,0,1.0472,0
0,0,1.0472,0,0,-13.9329
0,0,1.0472,0
0,0,1.0472,0
0,0,1.0472,0
0,0,1.0472,0
0,0,1.0472,0
0,0,1.0472,0
0,0,1.0472,0
0,0,1.0472,0
0,0,1.0472,0
0,0,1.0472,0
0,0,1.0472,0
0,0,1.0472,0
0,0,1.0472,0
0,0,1.0472,0
0,0,1.0472,0
0,0,1.0472,0
0,0,1.0472,0
0,0,1.0472,0,1,-8.93803
0,0,1.0472,0
0,0,1.0472,0
0,0,1.0472,0
0,0,1.0472,0
0,0,1.0472,0
0,0,1.0472,0
0,0,1.0472,0
0,0,1.0472,0
0,0,1.0472,0
0,0,1.0472,0
0,0,1.0472,0
0,0,1.0472,0
0,0,1.0472,0,0,13.9434
0,0,1.0472,0
0,0,1.0472,0
0,0,1.0472,0
0,0,1.0472,0
0,0,1.0472,0
0,0,1.0472,0,0,-12.8028
0,0,1.0472,0
0,0,1.0472,0
0,0,1.0472,0
0,0,1.0472,0
0,0,1.0472,0
0,0,1.0472,0,0,7.84113
0,0,1.0472,0
0,0,1.0472,0
0,0,1.0472,0
0,0,1.0472,0
0,0,1.0472,0
0,0,1.0472,0
0,0,1.0472,0,0,12.3518
0,0,1.0472,0
0,0,1.0472,0
0,0,1.0472,0
0,0,1.0472,0
0,0,1.0472,0
0,0,1.0472,0
0,0,1.0472,0
0,0,1.0472,0
0,0,1.0472,0
0,0,1.0472,0
0,0,1.0472,0
0,0,1.0472,0,0,9.79878
0,0,1.0472,0
0,0,1.0472,0,0,-13.6242
0,0,1.0472,0
0,0,1.0472,0
0,0,1.0472,0
0,0,1.0472,0
0,0,1.0472,0
0,0,1.0472,0
0,0,1.0472,0
0,0,1.0472,0
0,0,1.0472,0
0,0,1.0472,0
0,0,1.0472,0
0,0,1.0472,0
0,0,1.0472,0
0,0,1.0472,0
0,0,1.0472,0
0,0,1.0472,0
0,0,1.0472,0
0,0,1.0472,0,0,-12.6894
0,0,1.0472,0
0,0,1.0472,0
0,0,1.0472,0
0,0,1.0472,0
0,0,1.0472,0
0,0,1.0472,0
0,0,1.0472,0
0,0,1.0472,0
0,0,1.0472,0
0,0,1.0472,0
0,0,1.0472,0
0,0,1.0472,0
0,0,1.0472,0
0,0,1.0472,0,1,-9.79516
0,0,1.0472,0
0,0,1.0472,0
0,0,1.0472,0
0,0,1.0472,0
0,0,1.0472,0
0,0,1.0472,0
0,0,1.0472,0,0,-10.86
0,0,1.0472,0
0,0,1.0472,0
0,0,1.0472,0
0,0,1.0472,0
0,0,1.0472,0
0,0,1.0472,0
0,0,1.0472,0
0,0,1.0472,0
0,0,1.0472,0
0,0,0,0
0,0,0,0
0,0,0,0
0,0,0,0
0,0,0,0
0,0,0,0
0,0,0,0,0,10.2755
0,0,0,0
0,0,0,0
0,0,0,0
0,0,0,0
0,0,0,0
0,0,0,0
0,0,0,0
0,0,0,0
0,0,0,0
0,0,0,0
0,0,0,0
0,0,0,0
0,0,0,0
0,0,0,0
0,0,0,0
0,0,0,0,0,10.458
0,0,0,0
0,0,0,0
0,0,0,0
0,0,0,0,0,-12.2137
0,0,0,0
0,0,0,0
0,0,0,0
0,0,0,0
0,0,0,0
0,0,0,0
0,0,0,0
0,0,0,0,0,13.1296
0,0,0,0
0,0,0,0
0,0,0,0
0,0,0,0
0,0,0,0
0,0,0,0
0,0,0,0
0,0,0,0
0,0,0,0
0,0,0,0
0,0,0,0
0,0,0,0
0,0,0,0
0,0,0,0
0,0,0,0
0,0,0,0
0,0,0,0
0,0,0,0
0,0,0,0
0,0,0,0,0,8.1963
0,0,0,0
0,0,0,0
0,0,0,0
0,0,0,0
0,0,0,0
0,0,0,0,0,13.7851
0,0,0,0
0,0,0,0
0,0,0,0
0,0,0,0
0,0,0,0
0,0,0,0
0,0,0,0
0,0,0,0
0,0,0,0
0,0,0,0,1,-9.41113
0,0,0,0
0,0,0,0,0,-9.64429
0,0,0,0
0,0,0,0
0,0,0,0
0,0,0,0
0,0,0,0
0,0,0,0
0,0,0,0,0,-7.88916
0,0,0,0
0,0,0,0
0,0,0,0
0,0,0,0
0,0,0,0
0,0,0,0
0,0,0,0,0,-13.2173
0,0,0,0
0,0,0,0,0,13.5574
0,0,0,0,0,9.3639
0,0,0,0
0,0,0,0
0,0,0,0
0,0,0,0
0,0,0,0
0,0,0,0
0,0,0,0,0,-9.70934
0,0,0,0
0,0,0,0
0,0,0,0
0,0,0,0
0,0,0,0
0,0,0,0
0,0,0,0
0,0,0,0
0,0,0,0
0,0,0,0
0,0,0,0
0,0,0,0
0,0,0,0
0,0,0,0
0,0,0,0
0,0,0,0
0,0,0,0
0,0,0,0
0,0,0,0
0,0,0,0
0,0,0,0,0,11.4861
0,0,0,0
0,0,0,0
0,0,0,0
0,0,0,0
0,0,0,0
0,0,0,0
0,0,0,0
0,0,0,0
0,0,0,0
0,0,0,0
0,0,0,0
0,0,0,0
0,0,0,0
0,0,0,0
0,0,0,0,0,10.2362
0,0,0,0
0,0,0,0
0,0,0,0,0,-11.3724
0,0,0,0
0,0,0,0
0,0,0,0
0,0,0,0
0,0,0,0
0,0,0,0
0,0,0,0
0,0,0,0
0,0,0,0
0,0,0,0
0,0,0,0
0,0,0,0
0,0,0,0
0,0,0,0
0,0,0,0
0,0,0,0
0,0,0,0
0,0,0,0
0,0,0,0
0,0,0,0,0,13.6924
0,0,0,0
0,0,0,0,0,14.1931
0,0,0,0
0,0,0,0
0,0,0,0
0,0,0,0,1,9.70886
0,0,0,0
0,0,0,0
0,0,0,0
0,0,0,0,0,-11.0946
0,0,0,0,0,-8.09613
0,0,0,0,0,14.7892
0,0,0,0
0,0,0,0
0,0,0,0
0,0,0,0
0,0,0,0
0,0,0,0
0,0,0,0
0,0,0,0
0,0,0,0,0,-12.307
0,0,0,0
0,0,0,0
0,0,0,0
0,0,0,0
0,0,0,0
0,0,0,0
0,0,0,0
0,0,0,0
0,0,0,0
0,0,0,0
0,0,0,0
0,0,0,0
0,0,0,0
0,0,0,0
0,0,0,0
0,0,0,0
0,0,0,0
0,0,0,0,0,-13.4235
0,0,0,0
0,0,0,0
0,0,0,0
0,0,0,0
0,0,0,0
0,0,0,0
0,0,0,0
0,0,0,0
0,0,0,0,0,8.26064
0,0,0,0
0,0,0,0
0,0,0,0
0,0,0,0
0,0,0,0,0,-8.50152
0,0,0,0
0,0,0,0
0,0,0,0
0,0,0,0
0,0,0,0
0,0,0,0
0,0,0,0
0,0,0,0
0,0,0,0
0,0,0,0
0,0,0,0
0,0,0,0
0,0,0,0
0,0,0,0
0,0,0,0
0,0,0,0
0,0,0,0
0,0,0,0
0,0,0,0
0,0,0,0,0,-11.0257
0,0,0,0
0,0,0,0,1,8.451
0,0,0,0
0,0,0,0
0,0,0,0
0,0,0,0
0,0,0,0
0,0,0,0
0,0,0,0
0,0,0,0
0,0,0,0
0,0,0,0
0,0,0,0
0,0,0,0
0,0,0,0
0,0,0,0
0,0,0,0
0,0,0,0,1,-8.21064
0,0,0,0
0,0,0,0
0,0,0,0,0,-9.02319
0,0,0,0
0,0,0,0
0,0,0,0
0,0,0,0
0,0,0,0
0,0,0,0
0,0,0,0
0,0,0,0
0,0,0,0
0,0,0,0
0,0,0,0
0,0,0,0
0,0,0,0
0,0,0,0
0,0,0,0
0,0,0,0
0,0,0,0
0,0,0,0
0,0,0,0
0,0,0,0
0,0,0,0
0,0,0,0
0,0,0,0
0,0,0,0
0,0,0,0
0,0,0,0
0,0,0,0
0,0,0,0
0,0,0,0
0,0,0,0
0,0,0,0,0,12.6699
0,0,0,0
0,0,0,0
0,0,0,0
0,0,0,0
0,0,0,0
0,0,0,0
0,0,0,0
0,0,0,0
0,0,0,0
0,0,0,0,0,11.2697
0,0,0,0
0,0,0,0
0,0,0,0
0,0,0,0
0,0,0,0
0,0,0,0
0,0,0,0
0,0,0,0
0,0,0,0
0,0,0.523599,0
0,0,0.523599,0
0,0,0.523599,0
0,0,0.523599,0
0,0,0.523599,0
0,0,0.523599,0
0,0,0.523599,0
0,0,0.523599,0
0,0,0.523599,0
0,0,0.523599,0
0,0,0.523599,0
0,0,0.523599,0
0,0,0.523599,0
0,0,0.523599,0
0,0,0.523599,0
0,0,0.523599,0
0,0,0.523599,0
0,0,0.523599,0
0,0,0.523599,0
0,0,0.523599,0
0,0,0.523599,0
0,0,0.523599,0
0,0,0.523599,0
0,0,0.523599,0
0,0,0.523599,0
0,0,0.523599,0
0,0,0.523599,0
0,0,0.523599,0
0,0,0.523599,0
0,0,0.523599,0
0,0,0.523599,0,1,-8.51484
0,0,0.523599,0
0,0,0.523599,0
0,0,0.523599,0
0,0,0.523599,0
0,0,0.523599,0,2,-10.5973
0,0,0.523599,0
0,0,0.523599,0
0,0,0.523599,0
0,0,0.523599,0
0,0,0.523599,0
0,0,0.523599,0
0,0,0.523599,0
0,0,0.523599,0
0,0,0.523599,0,0,11.2166
0,0,0.523599,0
0,0,0.523599,0
0,0,0.523599,0
0,0,0.523599,0
0,0,0.523599,0
0,0,0.523599,0
0,0,0.523599,0
0,0,0.523599,0,0,8.00297
0,0,0.523599,0
0,0,0.523599,0,0,13.8253
0,0,0.523599,0
0,0,0.523599,0
0,0,0.523599,0
0,0,0.523599,0
0,0,0.523599,0
0,0,0.523599,0
0,0,0.523599,0
0,0,0.523599,0
0,0,0.523599,0
0,0,0.523599,0
0,0,0.523599,0
0,0,0.523599,0
0,0,0.523599,0
0,0,0.523599,0
0,0,0.523599,0
0,0,0.523599,0
0,0,0.523599,0
0,0,0.523599,0
0,0,0.523599,0
0,0,0.523599,0,0,10.3576
0,0,0.523599,0
0,0,0.523599,0,0,-12.4949
0,0,0.523599,0
0,0,0.523599,0
0,0,0.523599,0,0,11.9692
0,0,0.523599,0
0,0,0.523599,0
0,0,0.523599,0
0,0,0.523599,0
0,0,0.523599,0
0,0,0.523599,0,0,10.0881
0,0,0.523599,0
0,0,0.523599,0
0,0,0.523599,0
0,0,0.523599,0
0,0,0.523599,0
0,0,0.523599,0
0,0,0.523599,0
0,0,0.523599,0
0,0,0.523599,0
0,0,0.523599,0
0,0,0.523599,0
0,0,0.523599,0
0,0,0.523599,0
0,0,0.523599,0
0,0,0.523599,0
0,0,0.523599,0
0,0,0.523599,0
0,0,0.523599,0
0,0,0.523599,0
0,0,0.523599,0
0,0,0.523599,0
0,0,0.523599,0
0,0,0.523599,0,0,11.1198
0,0,0.523599,0
0,0,0.523599,0
0,0,0.523599,0
0,0,0.523599,0
0,0,0.523599,0
0,0,0.523599,0
0,0,0.523599,0,0,-10.6956
0,0,0.523599,0
0,0,0.523599,0
0,0,0.523599,0
0,0,0.523599,0
0,0,0.523599,0
0,0,0.523599,0
0,0,0.523599,0
0,0,0.523599,0,0,-10.3243
0,0,0.523599,0
0,0,0.523599,0
0,0,0.523599,0
0,0,0.523599,0
0,0,0.523599,0
0,0,0.523599,0
0,0,0.523599,0
0,0,0.523599,0
0,0,0.523599,0
0,0,0.523599,0
0,0,0.523599,0
0,0,0.523599,0
0,0,0.523599,0
0,0,0.523599,0
0,0,0.523599,0
0,0,0.523599,0
0,0,0.523599,0,0,13.2068
0,0,0.523599,0
0,0,0.523599,0
0,0,0.523599,0
0,0,0.523599,0
0,0,0.523599,0
0,0,0.523599,0
0,0,0.523599,0
0,0,0.523599,0
0,0,0.523599,0
0,0,0.523599,0
0,0,0.523599,0
0,0,0.523599,0
0,0,0.523599,0
0,0,0.523599,0
0,0,0.523599,0
0,0,0.523599,0
0,0,0.523599,0
0,0,0.523599,0,0,-8.49999
0,0,0.523599,0
0,0,0.523599,0
0,0,0.523599,0
0,0,0.523599,0
0,0,0.523599,0
0,0,0.523599,0
0,0,0.523599,0
0,0,0.523599,0
0,0,0.523599,0
0,0,0.523599,0
0,0,0.523599,0
0,0,0.523599,0
0,0,0.523599,0,0,-13.8226
0,0,0.523599,0
0,0,0.523599,0,0,8.31744
0,0,0.523599,0
0,0,0.523599,0
0,0,0.523599,0
0,0,0.523599,0
0,0,0.523599,0
0,0,0.523599,0
0,0,0.523599,0
0,0,0.523599,0
0,0,0.523599,0
0,0,0.523599,0
0,0,0.523599,0
0,0,0.523599,0
0,0,0.523599,0
0,0,0.523599,0
0,0,0.523599,0
0,0,0.523599,0,0,14.5156
0,0,0.523599,0
0,0,0.523599,0,0,14.3941
0,0,0.523599,0
0,0,0.523599,0
0,0,0.523599,0
0,0,0.523599,0
0,0,0.523599,0,1,7.99113
0,0,0.523599,0
0,0,0.523599,0,0,12.4931
0,0,0.523599,0,0,12.0087
0,0,0.523599,0
0,0,0.523599,0
0,0,0.523599,0
0,0,0.523599,0,0,-8.89081
0,0,0.523599,0
0,0,0.523599,0
0,0,0.523599,0,0,14.3824
0,0,0.523599,0
0,0,0.523599,0
0,0,0.523599,0
0,0,0.523599,0
0,0,0.523599,0
0,0,0.523599,0
0,0,0.523599,0
0,0,0.523599,0,0,12.8766
0,0,0.523599,0
0,0,0.523599,0
0,0,0.523599,0
0,0,0.523599,0
0,0,0.523599,0
0,0,0.523599,0
0,0,0.523599,0
0,0,0.523599,0
0,0,0.523599,0,0,-13.8053
0,0,0.523599,0
0,0,0.523599,0
0,0,0.523599,0
0,0,0.523599,0
0,0,0.523599,0
0,0,0.523599,0
0,0,0.523599,0,0,-11.0162
0,0,0.523599,0,0,-14.859
0,0,0.523599,0
0,0,0.523599,0
0,0,0.523599,0
0,0,0.523599,0,0,8.01385
0,0,0.523599,0,0,13.9346
0,0,0.523599,0,0,13.0773
0,0,0.523599,0
0,0,0.523599,0
0,0,0.523599,0
0,0,0.523599,0
0,0,0.523599,0
0,0,0.523599,0
0,0,0.523599,0
0,0,0.523599,0
0,0,0.523599,0
0,0,0.523599,0
0,0,0.523599,0
0,0,0.523599,0,0,-14.2672
0,0,0.523599,0
0,0,0.523599,0
0,0,0.523599,0,0,-11.5351
0,0,0.523599,0,0,12.3445
0,0,0.523599,0
0,0,0.523599,0
0,0,0.523599,0
0,0,0.523599,0
0,0,0.523599,0
0,0,0.523599,0
0,0,0.523599,0
0,0,0.523599,0
0,0,0.523599,0
0,0,0.523599,0
0,0,0.523599,0
0,0,0.523599,0
0,0,0.523599,0
0,0,0.523599,0
0,0,0.523599,0
0,0,0.523599,0,0,9.3686
0,0,0.523599,0
0,0,0.523599,0,0,-12.2382
0,0,0.523599,0
0,0,0.523599,0
0,0,0.523599,0
0,0,0.523599,0,0,11.2189
0,0,0.523599,0
0,0,0.523599,0
0,0,0.523599,0
0,0,0.523599,0
0,0,0.523599,0
0,0,0.523599,0
0,0,0.523599,0
0,0,0.523599,0
0,0,0.523599,0
0,0,0.523599,0
0,0,0.523599,0
0,0,0.523599,0,0,-13.8992
0,0,0.523599,0
0,0,0.523599,0
0,0,0.523599,0,0,11.4879
0,0,0.523599,0
0,0,0.523599,0
0,0,0.523599,0,0,-9.39342
0,0,0.523599,0
0,0,0.523599,0
0,0,0.523599,0
0,0,0.523599,0
0,0,0.523599,0
0,0,0.523599,0
0,0,0,0
0,0,0,0
0,0,0,0
0,0,0,0
0,0,0,0
0,0,0,0
0,0,0,0
0,0,0,0
0,0,0,0
0,0,0,0
0,0,0,0
0,0,0,0
0,0,0,0
0,0,0,0
0,0,0,0
0,0,0,0
0,0,0,0
0,0,0,0
0,0,0,0
0,0,0,0
0,0,0,0,0,-13.3005
0,0,0,0,0,-9.22854
0,0,0,0
0,0,0,0
0,0,0,0
0,0,0,0
0,0,0,0
0,0,0,0
0,0,0,0
0,0,0,0
0,0,0,0
0,0,0,0
0,0,0,0,0,-12.7642
0,0,0,0
0,0,0,0
0,0,0,0
0,0,0,0
0,0,0,0
0,0,0,0
0,0,0,0
0,0,0,0
0,0,0,0
0,0,0,0
0,0,0,0
0,0,0,0
0,0,0,0
0,0,0,0
0,0,0,0
0,0,0,0
0,0,0,0
0,0,0,0
0,0,0,0
0,0,0,0,0,12.1492
0,0,0,0
0,0,0,0
0,0,0,0
0,0,0,0
0,0,0,0
0,0,0,0
0,0,0,0
0,0,0,0
0,0,0,0
0,0,0,0
0,0,0,0,0,11.1466
0,0,0,0
0,0,0,0
0,0,0,0
0,0,0,0
0,0,0,0
0,0,0,0
0,0,0,0
0,0,0,0
0,0,0,0
0,0,0,0
0,0,0,0
0,0,0,0
0,0,0,0,0,9.42298
0,0,0,0
0,0,0,0,0,-12.6118
0,0,0,0
0,0,0,0,0,14.8584
0,0,0,0
0,0,0,0
0,0,0,0
0,0,0,0
0,0,0,0,0,-9.86429
0,0,0,0
0,0,0,0
0,0,0,0
0,0,0,0
0,0,0,0,0,7.8178
0,0,0,0
0,0,0,0
0,0,0,0
0,0,0,0
0,0,0,0,1,-8.83962
0,0,0,0
0,0,0,0
0,0,0,0
0,0,0,0
0,0,0,0,1,8.55428
0,0,0,0
0,0,0,0
0,0,0,0,0,-13.0904
0,0,0,0,0,-14.745
0,0,0,0,0,-11.2638
0,0,0,0
0,0,0,0
0,0,0,0
0,0,0,0,0,-10.7879
0,0,0,0
0,0,0,0
0,0,0,0
0,0,0,0,0,12.0367
0,0,0,0
0,0,0,0
0,0,0,0
0,0,0,0,0,8.46679
0,0,0,0
0,0,0,0
0,0,0,0
0,0,0,0
0,0,0,0
0,0,0,0
0,0,0,0
0,0,0,0
0,0,0,0
0,0,0,0
0,0,0,0
0,0,0,0,0,11.9997
0,0,0,0
0,0,0,0
0,0,0,0
0,0,0,0
0,0,0,0
0,0,0,0
0,0,0,0
0,0,0,0
0,0,0,0
0,0,0,0
0,0,0,0
0,0,0,0
0,0,0,0
0,0,0,0
0,0,0,0
0,0,0,0
0,0,0,0
0,0,0,0
0,0,0,0
0,0,0,0
0,0,0,0
0,0,0,0
0,0,0,0
0,0,0,0
0,0,0,0
0,0,0,0
0,0,0,0
0,0,0,0
0,0,0,0
0,0,0,0
0,0,0,0,0,8.08111
0,0,0,0
0,0,0,0
0,0,0,0
0,0,0,0
0,0,0,0
0,0,0,0,0,13.3535
0,0,0,0
0,0,0,0
0,0,0,0
0,0,0,0
0,0,0,0
0,0,0,0
0,0,0,0
0,0,0,0
0,0,0,0
0,0,0,0
0,0,0,0
0,0,0,0
0,0,0,0,0,-14.5258
0,0,0,0
0,0,0,0
0,0,0,0
0,0,0,0,0,9.87232
0,0,0,0
0,0,0,0
0,0,0,0
0,0,0,0
0,0,0,0
0,0,0,0
0,0,0,0
0,0,0,0
0,0,0,0
0,0,0,0
0,0,0,0
0,0,0,0
0,0,0,0
0,0,0,0
0,0,0,0
0,0,0,0
0,0,0,0
0,0,0,0
0,0,0,0
0,0,0,0
0,0,0,0,1,9.51036
0,0,0,0
0,0,0,0
0,0,0,0
0,0,0,0
0,0,0,0
0,0,0,0
0,0,0,0
0,0,0,0
0,0,0,0,0,10.4473
0,0,0,0
0,0,0,0
0,0,0,0
0,0,0,0
0,0,0,0
0,0,0,0
0,0,0,0
0,0,0,0,0,-8.85201
0,0,0,0
0,0,0,0
0,0,0,0,0,-13.7944
0,0,0,0
0,0,0,0
0,0,0,0
0,0,0,0
0,0,0,0
0,0,0,0
0,0,0,0
0,0,0,0
0,0,0,0,0,-12.2677
0,0,0,0
0,0,0,0
0,0,0,0
0,0,0,0,2,11.4949
0,0,0,0
0,0,0,0
0,0,0,0
0,0,0,0
0,0,0,0
0,0,0,0
0,0,0,0
0,0,0,0
0,0,0,0
0,0,0,0
0,0,0,0
0,0,0,0,0,9.0317
0,0,0,0
0,0,0,0
0,0,0,0
0,0,0,0,0,8.32848
0,0,0,0
0,0,0,0
0,0,0,0
0,0,0,0
0,0,0,0
0,0,0,0
0,0,0,0
0,0,0,0
0,0,0,0
0,0,0,0
0,0,0,0
0,0,0,0,0,-12.6604
0,0,0,0
0,0,0,0
0,0,0,0
0,0,0,0
0,0,0,0,0,-14.3751
0,0,0,0
0,0,0,0
0,0,0,0
0,0,0,0
0,0,0,0
0,0,0,0
0,0,0,0
0,0,0,0,0,11.4425
0,0,0,0
0,0,0,0
0,0,0,0
0,0,0,0
0,0,0,0
0,0,0,0
0,0,0,0
0,0,0,0
0,0,0,0
0,0,0,0
0,0,0,0
0,0,0,0
0,0,0,0
0,0,0,0
0,0,0,0,0,8.20562
0,0,0,0
0,0,0,0
0,0,0,0
0,0,0,0
0,0,0,0
0,0,0,0
0,0,0,0,0,-13.8853
0,0,0,0
0,0,0,0
0,0,0,0
0,0,0,0
0,0,0,0,0,8.1444
0,0,0,0
0,0,0,0
0,0,0,0
0,0,0,0
0,0,0,0
0,0,0,0
0,0,0,0
0,0,0,0
0,0,0,0
0,0,0,0
0,0,0,0
0,0,0,0
0,0,0,0
0,0,0,0
0,0,0,0
0,0,0,0
0,0,0,0
0,0,0,0
0,0,0,0
0,0,0,0
0,0,0,0
0,0,0,0
0,0,0,0
0,0,0,0
0,0,0,0
0,0,0,0
0,0,0,0
0,0,0,0
0,0,0,0
0,0,0,0
0,0,0,0
0,0,0,0
0,0,0,0
0,0,0,0
0,0,0,0
0,0,0,0,0,12.13
0,0,0,0,0,-8.94567
0,0,0,0
0,0,0,0
0,0,0,0
0,0,0,0
0,0,0,0
0,0,0,0
0,0,0,0
0,0,0,0
0,0,0,0,0,8.3152
0,0,0,0
0,0,0,0
0,0,0,0,0,-13.493
0,0,0,0
0,0,0,0,0,-12.7233
0,0,0,0
0,0,0,0
0,0,0,0
0,0,0,0
0,0,0,0
0,0,0,0
0,0,0,0
0,0,0,0
0,0,0,0
0,0,0,0
0,0,0,0
0,0,0,0
0,0,0,0
0,0,0,0
0,0,0,0
0,0,0,0
0,0,0,0
0,0,0,0
0,0,0,0
0,0,0,0
0,0,0,0
0,0,0,0
0,0,0,0,1,8.15446
0,0,0,0
0,0,0,0
0,0,0,0
0,0,0,0,0,-12.9473
0,0,0,0
0,0,0,0,1,-7.75361
0,0,0,0
0,0,0,0
0,0,0,0
0,0,0,0
0,0,0,0
0,0,0,0
0,0,0,0
0,0,0.523599,0
0,0.822452,0.523599,0
0,2.46727,0.523599,0
0,4.93426,0.523599,0
0,8.22317,0.523599,0
0,12.3336,0.523599,0
0,17.2652,0.523599,0
0,23.0173,0.523599,0,1,-9.75294
0,29.5893,0.523599,0
0,36.9806,0.523599,0
0,45.1902,0.523599,0
0,54.2174,0.523599,0
0,64.061,0.523599,0
0,74.7201,0.523599,0
0,86.1934,0.523599,0
0,98.4798,0.523599,0
0,111.578,0.523599,0
0,125.486,0.523599,0
0,140.203,0.523599,0
0,155.727,0.523599,0
0,172.056,0.523599,0
0,189.189,0.523599,0
0,207.124,0.523599,0
0,225.858,0.523599,0
0,245.39,0.523599,0
0,265.718,0.523599,0
0,286.839,0.523599,0
0,308.751,0.523599,0
0,331.451,0.523599,0
0,354.938,0.523599,0
0,379.208,0.523599,0
0,404.259,0.523599,0
0,430.088,0.523599,0
0,456.692,0.523599,0,0,13.7943
0,484.069,0.523599,0
0,512.215,0.523599,0
0,541.128,0.523599,0
0,570.803,0.523599,0
0,601.239,0.523599,0
0,632.431,0.523599,0,0,13.8988
0,664.376,0.523599,0
0,697.07,0.523599,0
0,730.511,0.523599,0
0,764.694,0.523599,0
0,799.615,0.523599,0
0,835.272,0.523599,0
0,871.659,0.523599,0
0,908.773,0.523599,0
0,946.61,0.523599,0
0,985.165,0.523599,0
0,1024.44,0.523599,0
0,1064.42,0.523599,0
0,1105.1,0.523599,0
0,1146.49,0.523599,0
0,1188.57,0.523599,0
0,1231.35,0.523599,0
0,1274.81,0.523599,0
0,1318.96,0.523599,0
0,1363.78,0.523599,0
0,1409.28,0.523599,0
0,1455.44,0.523599,0
0,1502.27,0.523599,0
0,1549.75,0.523599,0
0,1597.89,0.523599,0,0,-8.63948
0,1646.68,0.523599,0,0,13.626
0,1696.1,0.523599,0
0,1746.17,0.523599,0
0,1796.86,0.523599,0
0,1848.18,0.523599,0
0,1900.12,0.523599,0
0,1952.67,0.523599,0
0,2005.83,0.523599,0
0,2059.6,0.523599,0
0,2113.96,0.523599,0
0,2168.91,0.523599,0
0,2224.45,0.523599,0
0,2280.56,0.523599,0
0,2337.25,0.523599,0
0,2394.5,0.523599,0
0,2452.31,0.523599,0
0,2510.68,0.523599,0,0,11.3071
0,2569.59,0.523599,0,0,10.4691
0,2629.05,0.523599,0
0,2689.04,0.523599,0
0,2749.55,0.523599,0
0,2810.59,0.523599,0
0,2872.14,0.523599,0
0,2934.2,0.523599,0,2,-10.583
0,2996.76,0.523599,0
0,3059.81,0.523599,0
0,3123.35,0.523599,0
0,3187.37,0.523599,0
0,3251.87,0.523599,0
0,3316.82,0.523599,0
0,3382.24,0.523599,0
0,3448.11,0.523599,0
0,3514.42,0.523599,0
0,3581.17,0.523599,0
0,3648.35,0.523599,0
0,3715.96,0.523599,0
0,3783.97,0.523599,0
0,3852.4,0.523599,0
0,3921.22,0.523599,0
0,3990.44,0.523599,0
0,4060.04,0.523599,0
0,4130.02,0.523599,0,0,-8.14454
0,4200.37,0.523599,0
0,4271.08,0.523599,0
0,4342.15,0.523599,0
0,4413.56,0.523599,0
0,4485.31,0.523599,0,0,10.2341
0,4557.39,0.523599,0
0,4629.79,0.523599,0
0,4702.51,0.523599,0,0,11.3158
0,4775.53,0.523599,0
0,4848.86,0.523599,0
0,4922.47,0.523599,0
0,4996.37,0.523599,0
0,5070.54,0.523599,0
0,5144.98,0.523599,0
0,5219.67,0.523599,0
0,5294.62,0.523599,0
0,5369.81,0.523599,0
0,5445.23,0.523599,0
0,5520.87,0.523599,0
0,5596.74,0.523599,0
0,5672.81,0.523599,0
0,5749.08,0.523599,0
0,5825.55,0.523599,0
0,5902.2,0.523599,0
0,5979.02,0.523599,0
0,6056.01,0.523599,0
0,6133.16,0.523599,0
0,6210.46,0.523599,0,0,10.7759
0,6287.9,0.523599,0
0,6365.47,0.523599,0
0,6443.17,0.523599,0
0,6520.98,0.523599,0
0,6598.9,0.523599,0
0,6676.92,0.523599,0
0,6755.03,0.523599,0
0,6833.22,0.523599,0
0,6911.48,0.523599,0
0,6989.81,0.523599,0
0,7068.2,0.523599,0,0,11.6652
0,7146.63,0.523599,0
0,7225.1,0.523599,0
0,7303.6,0.523599,0,0,-10.0046
0,7382.12,0.523599,0
0,7460.66,0.523599,0
0,7539.2,0.523599,0
0,7617.74,0.523599,0
0,7696.26,0.523599,0
0,7774.76,0.523599,0
0,7853.23,0.523599,0
0,7931.66,0.523599,0
0,8010.05,0.523599,0
0,8088.38,0.523599,0
0,8166.64,0.523599,0
0,8244.83,0.523599,0
0,8322.94,0.523599,0
0,8400.96,0.523599,0
0,8478.88,0.523599,0
0,8556.7,0.523599,0
0,8634.39,0.523599,0
0,8711.97,0.523599,0,0,12.5135
0,8789.41,0.523599,0
0,8866.71,0.523599,0
0,8943.85,0.523599,0
0,9020.84,0.523599,0,0,8.69108
0,9097.67,0.523599,0
0,9174.32,0.523599,0
0,9250.78,0.523599,0
0,9327.05,0.523599,0
0,9403.12,0.523599,0
0,9478.99,0.523599,0
0,9554.63,0.523599,0,0,13.1358
0,9630.06,0.523599,0
0,9705.24,0.523599,0
0,9780.19,0.523599,0
0,9854.89,0.523599,0,1,8.02812
0,9929.32,0.523599,0,0,10.0264
0,10003.5,0.523599,0
0,10077.4,0.523599,0
0,10151,0.523599,0
0,10224.3,0.523599,0
0,10297.4,0.523599,0
0,10370.1,0.523599,0
0,10442.5,0.523599,0
0,10514.6,0.523599,0,0,13.4549
0,10586.3,0.523599,0
0,10657.7,0.523599,0
0,10728.8,0.523599,0
0,10799.5,0.523599,0,0,-11.2824
0,10869.8,0.523599,0
0,10939.8,0.523599,0
0,11009.4,0.523599,0,1,7.92746
0,11078.6,0.523599,0
0,11147.5,0.523599,0
0,11215.9,0.523599,0
0,11283.9,0.523599,0,0,8.41286
0,11351.5,0.523599,0
0,11418.7,0.523599,0
0,11485.4,0.523599,0
0,11551.8,0.523599,0
0,11617.6,0.523599,0
0,11683,0.523599,0
0,11748,0.523599,0
0,11812.5,0.523599,0,0,8.0181
0,11876.5,0.523599,0
0,11940.1,0.523599,0
0,12003.1,0.523599,0
0,12065.7,0.523599,0
0,12127.7,0.523599,0,0,-8.95157
0,12189.3,0.523599,0
0,12250.3,0.523599,0
0,12310.8,0.523599,0
0,12370.8,0.523599,0
0,12430.3,0.523599,0
0,12489.2,0.523599,0
0,12547.5,0.523599,0
0,12605.4,0.523599,0
0,12662.6,0.523599,0
0,12719.3,0.523599,0
0,12775.4,0.523599,0,0,-13.6523
0,12831,0.523599,0
0,12885.9,0.523599,0
0,12940.3,0.523599,0
0,12994,0.523599,0
0,13047.2,0.523599,0
0,13099.7,0.523599,0
0,13151.7,0.523599,0
0,13203,0.523599,0
0,13253.7,0.523599,0
0,13303.8,0.523599,0
0,13353.2,0.523599,0
0,13402,0.523599,0
0,13450.1,0.523599,0
0,13497.6,0.523599,0
0,13544.4,0.523599,0
0,13590.6,0.523599,0
0,13636.1,0.523599,0
0,13680.9,0.523599,0
0,13725.1,0.523599,0
0,13768.5,0.523599,0
0,13811.3,0.523599,0
0,13853.4,0.523599,0
0,13894.8,0.523599,0
0,13935.4,0.523599,0
0,13975.4,0.523599,0
0,14014.7,0.523599,0
0,14053.3,0.523599,0
0,14091.1,0.523599,0
0,14128.2,0.523599,0,0,-14.8481
0,14164.6,0.523599,0,0,8.42645
0,14200.2,0.523599,0
0,14235.2,0.523599,0
0,14269.4,0.523599,0
0,14302.8,0.523599,0
0,14335.5,0.523599,0
0,14367.4,0.523599,0
0,14398.6,0.523599,0,1,-8.82596
0,14429.1,0.523599,0
0,14458.7,0.523599,0
0,14487.6,0.523599,0
0,14515.8,0.523599,0,0,-8.64378
0,14543.2,0.523599,0
0,14569.8,0.523599,0,0,11.1541
0,14595.6,0.523599,0
0,14620.7,0.523599,0
0,14644.9,0.523599,0
0,14668.4,0.523599,0
0,14691.1,0.523599,0
0,14713,0.523599,0
0,14734.1,0.523599,0
0,14754.5,0.523599,0
0,14774,0.523599,0,0,10.3684
0,14792.7,0.523599,0
0,14810.7,0.523599,0
0,14827.8,0.523599,0
0,14844.1,0.523599,0
0,14859.7,0.523599,0
0,14874.4,0.523599,0
0,14888.3,0.523599,0
0,14901.4,0.523599,0
0,14913.7,0.523599,0
0,14925.1,0.523599,0,0,8.9013
0,14935.8,0.523599,0
0,14945.6,0.523599,0
0,14954.7,0.523599,0
0,14962.9,0.523599,0,0,-9.48165
0,14970.3,0.523599,0
0,14976.8,0.523599,0
0,14982.6,0.523599,0
0,14987.5,0.523599,0
0,14991.6,0.523599,0,0,-8.02594
0,14994.9,0.523599,0
0,14997.4,0.523599,0
0,14999,0.523599,0
0,15000,0.523599,0
0,15000,0,0
0,15000,0,0
0,15000,0,0
0,15000,0,0,0,11.6819
0,15000,0,0
0,15000,0,0
0,15000,0,0
0,15000,0,0
0,15000,0,0
0,15000,0,0
0,15000,0,0
0,15000,0,0
0,15000,0,0
0,15000,0,0
0,15000,0,0
0,15000,0,0
0,15000,0,0
0,15000,0,0
0,15000,0,0
0,15000,0,0
0,15000,0,0
0,15000,0,0
0,15000,0,0
0,15000,0,0,0,-9.40152
0,15000,0,0
0,15000,0,0
0,15000,0,0
0,15000,0,0
0,15000,0,0
0,15000,0,0
0,15000,0,0
0,15000,0,0
0,15000,0,0
0,15000,0,0
0,15000,0,0
0,15000,0,0
0,15000,0,0
0,15000,0,0,0,-13.9294
0,15000,0,0
0,15000,0,0,0,-9.19056
0,15000,0,0
0,15000,0,0,0,14.2554
0,15000,0,0
0,15000,0,0
0,15000,0,0,0,9.46267
0,15000,0,0
0,15000,0,0
0,15000,0,0
0,15000,0,0
0,15000,0,0
0,15000,0,0,1,8.06893
0,15000,0,0
0,15000,0,0
0,15000,0,0
0,15000,0,0
0,15000,0,0,0,-13.5495
0,15000,0,0
0,15000,0,0
0,15000,0,0
0,15000,0,0
0,15000,0,0
0,15000,0,0
0,15000,0,0
0,15000,0,0
0,15000,0,0,0,-14.5913
0,15000,0,0
0,15000,0,0
0,15000,0,0
0,15000,0,0
0,15000,0,0
0,15000,0,0
0,15000,0,0,2,11.8368
0,15000,0,0,0,-10.5724
0,15000,0,0
0,15000,0,0
0,15000,0,0
0,15000,0,0
0,15000,0,0,0,-9.95794
0,15000,0,0
0,15000,0,0
0,15000,0,0
0,15000,0,0,0,14.3504
0,15000,0,0
0,15000,0,0
0,15000,0,0
0,15000,0,0
0,15000,0,0
0,15000,0,0
0,15000,0,0
0,15000,0,0
0,15000,0,0
0,15000,0,0
0,15000,0,0,0,7.56687
0,15000,0,0
0,15000,0,0
0,15000,0,0
0,15000,0,0
0,15000,0,0
0,15000,0,0
0,15000,0,0
0,15000,0.523599,0
0,15000.8,0.523599,0
0,15002.5,0.523599,0,0,10.8094
0,15004.9,0.523599,0
0,15008.2,0.523599,0
0,15012.3,0.523599,0
0,15017.3,0.523599,0
0,15023,0.523599,0
0,15029.6,0.523599,0
0,15037,0.523599,0
0,15045.2,0.523599,0
0,15054.2,0.523599,0,0,14.0733
0,15064.1,0.523599,0
0,15074.7,0.523599,0
0,15086.2,0.523599,0,0,9.95351
0,15098.5,0.523599,0
0,15111.6,0.523599,0
0,15125.5,0.523599,0
0,15140.2,0.523599,0
0,15155.7,0.523599,0
0,15172.1,0.523599,0
0,15189.2,0.523599,0
0,15207.1,0.523599,0
0,15225.9,0.523599,0
0,15245.4,0.523599,0,0,9.74891
0,15265.7,0.523599,0
0,15286.8,0.523599,0
0,15308.8,0.523599,0
0,15331.5,0.523599,0,0,-10.5033
0,15354.9,0.523599,0,0,11.6138
0,15379.2,0.523599,0
0,15404.3,0.523599,0
0,15430.1,0.523599,0
0,15456.7,0.523599,0
0,15484.1,0.523599,0
0,15512.2,0.523599,0
0,15541.1,0.523599,0
0,15570.8,0.523599,0
0,15601.2,0.523599,0
0,15632.4,0.523599,0
0,15664.4,0.523599,0
0,15697.1,0.523599,0
0,15730.5,0.523599,0
0,15764.7,0.523599,0
0,15799.6,0.523599,0
0,15835.3,0.523599,0
0,15871.7,0.523599,0
0,15908.8,0.523599,0
0,15946.6,0.523599,0
0,15985.2,0.523599,0
0,16024.4,0.523599,0
0,16064.4,0.523599,0
0,16105.1,0.523599,0
0,16146.5,0.523599,0
0,16188.6,0.523599,0
0,16231.3,0.523599,0
0,16274.8,0.523599,0
0,16319,0.523599,0
0,16363.8,0.523599,0
0,16409.3,0.523599,0
0,16455.4,0.523599,0
0,16502.3,0.523599,0
0,16549.8,0.523599,0
0,16597.9,0.523599,0
0,16646.7,0.523599,0,0,-8.86073
0,16696.1,0.523599,0
0,16746.2,0.523599,0
0,16796.9,0.523599,0
0,16848.2,0.523599,0
0,16900.1,0.523599,0
0,16952.7,0.523599,0
0,17005.8,0.523599,0
0,17059.6,0.523599,0,1,9.00122
0,17114,0.523599,0
0,17168.9,0.523599,0
0,17224.4,0.523599,0,0,-12.4554
0,17280.6,0.523599,0
0,17337.2,0.523599,0,0,-9.85208
0,17394.5,0.523599,0
0,17452.3,0.523599,0
0,17510.7,0.523599,0
0,17569.6,0.523599,0
0,17629,0.523599,0
0,17689,0.523599,0
0,17749.6,0.523599,0
0,17810.6,0.523599,0
0,17872.1,0.523599,0,0,-8.69709
0,17934.2,0.523599,0
0,17996.8,0.523599,0
0,18059.8,0.523599,0
0,18123.4,0.523599,0
0,18187.4,0.523599,0
0,18251.9,0.523599,0
0,18316.8,0.523599,0
0,18382.2,0.523599,0
0,18448.1,0.523599,0
0,18514.4,0.523599,0
0,18581.2,0.523599,0
0,18648.4,0.523599,0
0,18716,0.523599,0
0,18784,0.523599,0
0,18852.4,0.523599,0
0,18921.2,0.523599,0
0,18990.4,0.523599,0
0,19060,0.523599,0,0,-11.6068
0,19130,0.523599,0
0,19200.4,0.523599,0,0,-7.5498
0,19271.1,0.523599,0,0,10.5839
0,19342.1,0.523599,0
0,19413.6,0.523599,0
0,19485.3,0.523599,0
0,19557.4,0.523599,0
0,19629.8,0.523599,0
0,19702.5,0.523599,0
0,19775.5,0.523599,0,0,-10.2225
0,19848.9,0.523599,0
0,19922.5,0.523599,0
0,19996.4,0.523599,0
0,20070.5,0.523599,0
0,20145,0.523599,0,0,11.5004
0,20219.7,0.523599,0,0,-13.0333
0,20294.6,0.523599,0
0,20369.8,0.523599,0
0,20445.2,0.523599,0,0,11.4397
0,20520.9,0.523599,0
0,20596.7,0.523599,0
0,20672.8,0.523599,0
0,20749.1,0.523599,0,0,-8.43042
0,20825.5,0.523599,0
0,20902.2,0.523599,0
0,20979,0.523599,0
0,21056,0.523599,0
0,21133.2,0.523599,0
0,21210.5,0.523599,0
0,21287.9,0.523599,0
0,21365.5,0.523599,0
0,21443.2,0.523599,0
0,21521,0.523599,0
0,21598.9,0.523599,0
0,21676.9,0.523599,0
0,21755,0.523599,0,0,-10.1247
0,21833.2,0.523599,0
0,21911.5,0.523599,0
0,21989.8,0.523599,0
0,22068.2,0.523599,0
0,22146.6,0.523599,0
0,22225.1,0.523599,0
0,22303.6,0.523599,0
0,22382.1,0.523599,0
0,22460.7,0.523599,0
0,22539.2,0.523599,0
0,22617.7,0.523599,0
0,22696.2,0.523599,0,0,9.57153
0,22774.8,0.523599,0
0,22853.2,0.523599,0
0,22931.7,0.523599,0
0,23010,0.523599,0
0,23088.4,0.523599,0,0,-10.1623
0,23166.6,0.523599,0
0,23244.8,0.523599,0,0,-13.7637
0,23322.9,0.523599,0,0,-9.93019
0,23401,0.523599,0
0,23478.9,0.523599,0
0,23556.7,0.523599,0
0,23634.4,0.523599,0
0,23712,0.523599,0
0,23789.4,0.523599,0
0,23866.7,0.523599,0
0,23943.8,0.523599,0
0,24020.8,0.523599,0
0,24097.7,0.523599,0
0,24174.3,0.523599,0
0,24250.8,0.523599,0
0,24327,0.523599,0
0,24403.1,0.523599,0
0,24479,0.523599,0
0,24554.6,0.523599,0
0,24630,0.523599,0
0,24705.2,0.523599,0
0,24780.2,0.523599,0
0,24854.9,0.523599,0
0,24929.3,0.523599,0
0,25003.5,0.523599,0
0,25077.4,0.523599,0,0,-10.3838
0,25151,0.523599,0
0,25224.3,0.523599,0
0,25297.3,0.523599,0
0,25370.1,0.523599,0
0,25442.5,0.523599,0
0,25514.5,0.523599,0
0,25586.3,0.523599,0
0,25657.7,0.523599,0
0,25728.8,0.523599,0
0,25799.5,0.523599,0
0,25869.8,0.523599,0,0,-8.44581
0,25939.8,0.523599,0,0,-11.6044
0,26009.4,0.523599,0,0,11.023
0,26078.6,0.523599,0
0,26147.4,0.523599,0
0,26215.9,0.523599,0
0,26283.9,0.523599,0
0,26351.5,0.523599,0
0,26418.7,0.523599,0
0,26485.4,0.523599,0
0,26551.7,0.523599,0
0,26617.6,0.523599,0
0,26683,0.523599,0
0,26748,0.523599,0,0,14.466
0,26812.5,0.523599,0
0,26876.5,0.523599,0
0,26940,0.523599,0
0,27003.1,0.523599,0
0,27065.6,0.523599,0
0,27127.7,0.523599,0
0,27189.3,0.523599,0
0,27250.3,0.523599,0
0,27310.8,0.523599,0
0,27370.8,0.523599,0
0,27430.2,0.523599,0
0,27489.2,0.523599,0
0,27547.5,0.523599,0
0,27605.3,0.523599,0
0,27662.6,0.523599,0,1,-7.77386
0,27719.3,0.523599,0
0,27775.4,0.523599,0
0,27830.9,0.523599,0
0,27885.9,0.523599,0
0,27940.2,0.523599,0
0,27994,0.523599,0,1,9.74724
0,28047.2,0.523599,0
0,28099.7,0.523599,0
0,28151.7,0.523599,0
0,28203,0.523599,0
0,28253.7,0.523599,0
0,28303.7,0.523599,0
0,28353.2,0.523599,0,0,-14.5105
0,28402,0.523599,0
0,28450.1,0.523599,0
0,28497.6,0.523599,0
0,28544.4,0.523599,0
0,28590.6,0.523599,0
0,28636.1,0.523599,0
0,28680.9,0.523599,0
0,28725,0.523599,0
0,28768.5,0.523599,0
0,28811.3,0.523599,0
0,28853.4,0.523599,0
0,28894.7,0.523599,0
0,28935.4,0.523599,0
0,28975.4,0.523599,0
0,29014.7,0.523599,0
0,29053.2,0.523599,0
0,29091.1,0.523599,0,0,-9.35874
0,29128.2,0.523599,0
0,29164.6,0.523599,0
0,29200.2,0.523599,0
0,29235.1,0.523599,0
0,29269.3,0.523599,0
0,29302.8,0.523599,0
0,29335.5,0.523599,0
0,29367.4,0.523599,0
0,29398.6,0.523599,0
0,29429,0.523599,0
0,29458.7,0.523599,0
0,29487.6,0.523599,0
0,29515.8,0.523599,0
0,29543.2,0.523599,0
0,29569.8,0.523599,0,0,14.4133
0,29595.6,0.523599,0,0,11.8819
0,29620.6,0.523599,0
0,29644.9,0.523599,0
0,29668.4,0.523599,0
0,29691.1,0.523599,0
0,29713,0.523599,0
0,29734.1,0.523599,0
0,29754.5,0.523599,0
0,29774,0.523599,0
0,29792.7,0.523599,0
0,29810.7,0.523599,0
0,29827.8,0.523599,0
0,29844.1,0.523599,0
0,29859.6,0.523599,0
0,29874.4,0.523599,0
0,29888.3,0.523599,0
0,29901.4,0.523599,0,0,-7.58275
0,29913.7,0.523599,0
0,29925.1,0.523599,0
0,29935.8,0.523599,0
0,29945.6,0.523599,0,0,-9.26918
0,29954.7,0.523599,0,0,10.2362
0,29962.9,0.523599,0
0,29970.3,0.523599,0
0,29976.8,0.523599,0
0,29982.6,0.523599,0
0,29987.5,0.523599,0
0,29991.6,0.523599,0
0,29994.9,0.523599,0,0,-9.37559
0,29997.4,0.523599,0
0,29999,0.523599,0
0,30000,0.523599,0
0,30000,0,0
0,30000,0,0
0,30000,0,0
0,30000,0,0
0,30000,0,0
0,30000,0,0
0,30000,0,0
0,30000,0,0
0,30000,0,0
0,30000,0,0
0,30000,0,0
0,30000,0,0
0,30000,0,0
0,30000,0,0
0,30000,0,0
0,30000,0,0
0,30000,0,0
0,30000,0,0
0,30000,0,0
0,30000,0,0
0,30000,0,0
0,30000,0,0
0,30000,0,0
0,30000,0,0
0,30000,0,0
0,30000,0,0,0,-7.56211
0,30000,0,0
0,30000,0,0
0,30000,0,0,0,-13.4207
0,30000,0,0
0,30000,0,0
0,30000,0,0
0,30000,0,0
0,30000,0,0
0,30000,0,0
0,30000,0,0
0,30000,0,0
0,30000,0,0
0,30000,0,0
0,30000,0,0
0,30000,0,0
0,30000,0,0
0,30000,0,0
0,30000,0,0
0,30000,0,0
0,30000,0,0,0,-12.1725
0,30000,0,0
0,30000,0,0
0,30000,0,0
0,30000,0,0
0,30000,0,0
0,30000,0,0
0,30000,0,0
0,30000,0,0
0,30000,0,0
0,30000,0,0
0,30000,0,0
0,30000,0,0
0,30000,0,0
0,30000,0,0,0,11.1989
0,30000,0,0
0,30000,0,0
0,30000,0,0
0,30000,0,0
0,30000,0,0
0,30000,0,0
0,30000,0,0
0,30000,0,0
0,30000,0,0,0,7.7207
0,30000,0,0
0,30000,0,0,0,-13.3802
0,30000,0,0
0,30000,0,0
0,30000,0,0
0,30000,0,0
0,30000,0,0
0,30000,0,0
0,30000,0,0,0,9.19889
0,30000,0,0
0,30000,0,0
0,30000,0,0
0,30000,0,0
0,30000,0,0
0,30000,0,0
0,30000,0,0
0,30000,0,0
0,30000,0,0
0,30000,0,0
0,30000,0,0
0,30000,0,0
0,30000,0,0
0,30000,0,0
0,30000,0,0
0,30000,0,0
0,30000,0,0
0,30000,0,0
0,30000,0,0
0,30000,0,0,0,8.71975
0,30000,0,0
0,30000,0,0
0,30000,0,0
0,30000,0,0,0,-10.8978
0,30000,0,0,0,-8.39756
0,30000,0,0
0,30000,0,0
0,30000,0,0
0,30000,0,0
0,30000,0,0
0,30000,0,0,0,-10.8525
0,30000,0,0,0,-12.3324
0,30000,0,0
0,30000,0,0
0,30000,0,0
0,30000,0,0
0,30000,0,0
0,30000,0,0
0,30000,0,0
0,30000,0,0
0,30000,0,0
0,30000,0,0
0,30000,0,0,0,-14.979
0,30000,0,0
0,30000,0,0
0,30000,0,0
0,30000,0,0
0,30000,0,0
0,30000,0,0,0,8.33592
0,30000,0,0
0,30000,0,0
0,30000,0,0
0,30000,0,0,0,-10.5731
0,30000,0,0
0,30000,0,0,0,-14.0211
0,30000,0,0
0,30000,0,0,0,-12.5663
0,30000,0,0
0,30000,0,0
0,30000,0,0,0,-13.6187
0,30000,0,0
0,30000,0,0
0,30000,0,0
0,30000,0,0
0,30000,0,0
0,30000,0,0
0,30000,0,0
0,30000,0,0
0,30000,0,0
0,30000,0,0
0,30000,0,0
0,30000,0,0
0,30000,0,0
0,30000,0,0
0,30000,0,0
0,30000,0,0
0,30000,0,0
0,30000,0,0
0,30000,0,0
0,30000,0,0
0,30000,0,0
0,30000,0,0,1,9.81092
0,30000,0,0
0,30000,0,0
0,30000,0,0
0,30000,0,0
0,30000,0,0
0,30000,0,0
0,30000,0,0
0,30000,0,0
0,30000,0,0,0,-8.26925
0,30000,0,0
0,30000,0,0
0,30000,0,0
0,30000,0,0
0,30000,0,0
0,30000,0,0
0,30000,0,0
0,30000,0,0
0,30000,0,0,0,9.83085
0,30000,0,0
0,30000,0,0
0,30000,0,0
0,30000,0,0
0,30000,0,0
0,30000,0,0,0,-9.63628
0,30000,0,0
0,30000,0,0
0,30000,0,0
0,30000,0,0
0,30000,0,0
0,30000,0,0
0,30000,0,0,0,-14.0349
0,30000,0,0,0,-13.2802
0,30000,0,0
0,30000,0,0
0,30000,0,0
0,30000,0,0
0,30000,0,0
0,30000,0,0
0,30000,0,0,0,-9.38254
0,30000,0,0
0,30000,0,0
0,30000,0,0,0,12.3829
0,30000,0,0
0,30000,0,0
0,30000,0,0
0,30000,0,0
0,30000,0,0
0,30000,0,0
0,30000,0,0
0,30000,0,0
0,30000,0,0
0,30000,0,0
0,30000,0,0
0,30000,0,0
0,30000,0,0
0,30000,0,0
0,30000,0,0
0,30000,0,0
0,30000,0,0
0,30000,0,0
0,30000,0,0
0,30000,0,0
0,30000,0,0,0,-11.0387
0,30000,0,0
0,30000,0,0
0,30000,0,0
0,30000,0,0
0,30000,0,0
0,30000,0,0
0,30000,0,0
0,30000,0,0
0,30000,0,0
0,30000,0,0
0,30000,0,0
0,30000,0,0,0,13.9307
0,30000,0,0
0,30000,0,0,0,-14.1266
0,30000,0,0
0,30000,0,0
0,30000,0,0
0,30000,0,0
0,30000,0,0
0,30000,0,0
0,30000,0,0
0,30000,0,0
0,30000,0,0,0,14.0677
0,30000,0,0
0,30000,0,0
0,30000,0,0
0,30000,0,0,0,-9.82355
0,30000,0,0
0,30000,0,0
0,30000,0,0,0,13.7499
0,30000,0,0
0,30000,0,0,0,10.4374
0,30000,0,0
0,30000,0,0
0,30000,0,0
0,30000,0,0
0,30000,0,0
0,30000,0,0
0,30000,0,0
0,30000,0,0
0,30000,0,0
0,30000,0,0
0,30000,0,0
0,30000,0,0,0,-8.24706
0,30000,0,0
0,30000,0,0
0,30000,0,0,0,-10.7993
0,30000,0,0
0,30000,0,0
0,30000,0,0
0,30000,0,0
0,30000,0,0
0,30000,0,0
0,30000,0,0
0,30000,0,0
0,30000,0,0
0,30000,0,0
0,30000,0,0,0,12.0985
0,30000,0,0
0,30000,0,0
0,30000,0,0
0,30000,0,0
0,30000,0,0
0,30000,0,0
0,30000,0,0
0,30000,0,0
0,30000,0,0
0,30000,0,0
0,30000,0,0
0,30000,0,0
0,30000,0,0
0,30000,0,0
0,30000,0,0
0,30000,0,0
0,30000,0,0
0,30000,0,0,0,12.5092
0,30000,0,0
0,30000,0,0
0,30000,0,0
0,30000,0,0
0,30000,0,0
0,30000,0,0
0,30000,0,0
0,30000,0,0
0,30000,0,0
0,30000,0,0
0,30000,0,0
0,30000,0,0
0,30000,0,0
0,30000,0,0
0,30000,0,0
0,30000,0,0
0,30000,0,0
0,30000,0,0
0,30000,0,0
0,30000,0,0
0,30000,0,0
0,30000,0,0
0,30000,0,0
0,30000,0,0
0,30000,0,0
0,30000,0,0
0,30000,0,0
0,30000,0,0,0,-12.971
0,30000,0,0
0,30000,0,0
0,30000,0,0
0,30000,0,0
0,30000,0,0
0,30000,0,0
0,30000,0,0
0,30000,0,0
0,30000,0,0,0,-14.454
0,30000,0,0
0,30000,0,0,0,13.3702
0,30000,0,0
0,30000,0,0,0,-10.0982
0,30000,0,0,0,-11.6953
0,30000,0,0
0,30000,0,0
0,30000,0,0
0,30000,0,0
0,30000,0,0
0,30000,0,0
0,30000,0,0
0,30000,0,0
0,30000,0,0
0,30000,0,0
0,30000,0,0,0,-12.9429
0,30000,0,0
0,30000,0,0
0,30000,0,0,0,-10.5517
0,30000,0,0
0,30000,0,0
0,30000,0,0
0,30000,0,0
0,30000,0,0
0,30000,0,0
0,30000,0,0
0,30000,0,0
0,30000,0,0,0,10.7711
0,30000,0,0
0,30000,0,0
0,30000,0,0
0,30000,0,0
0,30000,0,0
0,30000,0,0
0,30000,0,0
0,30000,0,0
0,30000,0,0
0,30000,0,0
0,30000,0,0
0,30000,0,0
0,30000,0,0
0,30000,0,0
0,30000,0,0
0,30000,0,0
0,30000,0,0
0,30000,0,0
0,30000,0,0
0,30000,0,0
0,30000,0,0
0,30000,0,0
0,30000,0,0
0,30000,0,0
0,30000,0,0
0,30000,0,0
0,30000,0,0
0,30000,0,0,0,8.21923
0,30000,0,0
0,30000,0,0
0,30000,0,0
0,30000,0,0
0,30000,0,0
0,30000,0,0
0,30000,0,0
0,30000,0,0
0,30000,0,0
0,30000,0,0
0,30000,0,0
0,30000,0,0
0,30000,0,0
0,30000,0,0,1,7.95266
0,30000,0,0
0,30000,0,0
0,30000,0,0
0,30000,0,0
0,30000,0,0
0,30000,0,0,0,10.9569
0,30000,0,0
0,30000,0,0
0,30000,0,0,0,-14.2579
0,30000,0,0
0,30000,0,0,0,-10.859
0,30000,0,0
0,30000,0,0
0,30000,0,0
0,30000,0,0,0,10.2897
0,30000,0,0
0,30000,0,0
0,30000,0,0
0,30000,0,0
0,30000,0,0
0,30000,0,0
0,30000,0,0
0,30000,0,0
0,30000,0,0
0,30000,0,0
0,30000,0,0
0,30000,0,0
0,30000,0,0
0,30000,0,0
0,30000,0,0
0,30000,0,0
0,30000,0,0
0,30000,0,0
0,30000,0,0
0,30000,0,0
0,30000,0,0
0,30000,0,0,0,-9.43239
0,30000,0,0
0,30000,0,0,1,-7.6591
0,30000,0,0
0,30000,0,0,0,-9.27713
0,30000,0,0
0,30000,0,0
0,30000,0,0,0,-11.5476
0,30000,0,0
0,30000,0,0
0,30000,0,0
0,30000,0,0
0,30000,0,0,1,-9.71494
0,30000,0,0
0,30000,0,0,0,11.4306
0,30000,0,0
0,30000,0,0
0,30000,0,0
0,30000,0,0
0,30000,0,0
0,30000,0,0
0,30000,0,0
0,30000,0,0
0,30000,0,0
0,30000,0,0
0,30000,0,0,0,14.1497
0,30000,0,0
0,30000,0,0
0,30000,0,0
0,30000,0,0
0,30000,0,0
0,30000,0,0
0,30000,0,0
0,30000,0,0,0,12.7039
0,30000,0,0
0,30000,0,0
0,30000,0,0
0,30000,0,0
0,30000,0,0
0,30000,0,0
0,30000,0,0
0,30000,0,0
0,30000,0,0,0,-10.4061
0,30000,0,0
0,30000,0,0
0,30000,0,0
0,30000,0,0,0,13.4321
0,30000,0,0
0,30000,0,0
0,30000,0,0
0,30000,0,0
0,30000,0,0
0,30000,0,0
0,30000,0,0
0,30000,0,0
0,30000,0,0,0,12.0401
0,30000,0,0
0,30000,0,0
0,30000,0,0
0,30000,0,0
0,30000,0,0
0,30000,0,0
0,30000,0,0
0,30000,0,0
0,30000,0,0
0,30000,0,0
0,30000,0,0
0,30000,0,0
0,30000,0,0
0,30000,0,0
0,30000,0,0
0,30000,0,0
0,30000,0,0
0,30000,0,0
0,30000,0,0
0,30000,0,0
0,30000,0,0
0,30000,0,0
0,30000,0,0
0,30000,0,0
0,30000,0,0
0,30000,0,0
0,30000,0,0
0,30000,0,0
0,30000,0,0
0,30000,0,0
0,30000,0,0
0,30000,0,0,0,-13.5477
0,30000,0,0
0,30000,0,0,0,7.67897
0,30000,0,0
0,30000,0,0
0,30000,0,0
0,30000,0,0
0,30000,0,0
0,30000,0,0
0,30000,0,0,0,-9.32519
0,30000,0,0
0,30000,0,0
0,30000,0,0
0,30000,0,0
0,30000,0,0
0,30000,0,0
0,30000,0,0
0,30000,0,0
0,30000,0,0
0,30000,0,0
0,30000,0,0
0,30000,0,0
0,30000,0,0
0,30000,0,0,0,-7.60593
0,30000,0,0
0,30000,0,0
0,30000,0,0
0,30000,0,0
0,30000,0,0
0,30000,0,0
0,30000,0,0
0,30000,0,0
0,30000,0,0
0,30000,0,0
0,30000,0,0
0,30000,0,0
0,30000,0,0
0,30000,0,0
0,30000,0,0
0,30000,0,0
0,30000,0,0
0,30000,0,0
0,30000,0,0
0,30000,0,0
0,30000,0,0
0,30000,0,0
0,30000,0,0
0,30000,0,0
0,30000,0,0
0,30000,0,0
0,30000,0,0
0,30000,0,0,0,-12.4814
0,30000,0,0
0,30000,0,0
0,30000,0,0
0,30000,0,0
0,30000,0,0
0,30000,0,0
0,30000,0,0
0,30000,0,0,0,14.7459
0,30000,0,0,0,10.9483
0,30000,0,0
0,30000,0,0
0,30000,0,0
0,30000,0,0
0,30000,0,0
0,30000,0,0
0,30000,0,0
0,30000,0,0
0,30000,0,0
0,30000,0,0
0,30000,0,0
0,29999.2,0,0
0,29997.5,0,0
0,29995.1,0,0
0,29991.8,0,0
0,29987.7,0,0
0,29982.7,0,0
0,29977,0,0,0,11.2731
0,29970.4,0,0
0,29963,0,0
0,29954.8,0,0
0,29945.8,0,0
0,29935.9,0,0
0,29925.3,0,0
0,29913.8,0,0
0,29901.5,0,0
0,29888.4,0,0,0,-9.39536
0,29874.5,0,0
0,29859.8,0,0
0,29844.3,0,0
0,29827.9,0,0
0,29810.8,0,0
0,29792.9,0,0
0,29774.1,0,0
0,29754.6,0,0
0,29734.3,0,0
0,29713.2,0,0,0,9.41838
0,29691.2,0,0
0,29668.5,0,0
0,29645.1,0,0
0,29620.8,0,0
0,29595.7,0,0
0,29569.9,0,0
0,29543.3,0,0
0,29515.9,0,0
0,29487.8,0,0
0,29458.9,0,0
0,29429.2,0,0
0,29398.8,0,0
0,29367.6,0,0
0,29335.6,0,0
0,29302.9,0,0
0,29269.5,0,0
0,29235.3,0,0
0,29200.4,0,0
0,29164.7,0,0
0,29128.3,0,0
0,29091.2,0,0
0,29053.4,0,0
0,29014.8,0,0
0,28975.6,0,0
0,28935.6,0,0
0,28894.9,0,0,0,13.2945
0,28853.5,0,0,0,-8.85645
0,28811.4,0,0
0,28768.7,0,0
0,28725.2,0,0
0,28681,0,0
0,28636.2,0,0
0,28590.7,0,0
0,28544.6,0,0
0,28497.7,0,0
0,28450.2,0,0
0,28402.1,0,0
0,28353.3,0,0
0,28303.9,0,0
0,28253.8,0,0
0,28203.1,0,0
0,28151.8,0,0,0,-10.866
0,28099.9,0,0
0,28047.3,0,0
0,27994.2,0,0
0,27940.4,0,0
0,27886,0,0
0,27831.1,0,0
0,27775.6,0,0
0,27719.4,0,0,0,11.3175
0,27662.8,0,0
0,27605.5,0,0
0,27547.7,0,0
0,27489.3,0,0
0,27430.4,0,0
0,27371,0,0
0,27311,0,0,0,-14.3131
0,27250.4,0,0
0,27189.4,0,0,0,10.7325
0,27127.9,0,0
0,27065.8,0,0
0,27003.2,0,0,0,10.3221
0,26940.2,0,0
0,26876.7,0,0
0,26812.6,0,0
0,26748.1,0,0
0,26683.2,0,0
0,26617.8,0,0,0,11.7085
0,26551.9,0,0
0,26485.6,0,0
0,26418.8,0,0
0,26351.7,0,0
0,26284,0,0
0,26216,0,0
0,26147.6,0,0,0,8.63751
0,26078.8,0,0
0,26009.6,0,0
0,25940,0,0
0,25870,0,0
0,25799.6,0,0
0,25728.9,0,0
0,25657.9,0,0,0,8.12739
0,25586.4,0,0
0,25514.7,0,0,0,-8.76477
0,25442.6,0,0
0,25370.2,0,0
0,25297.5,0,0,0,-14.9562
0,25224.5,0,0
0,25151.2,0,0
0,25077.5,0,0
0,25003.6,0,0
0,24929.5,0,0
0,24855,0,0
0,24780.3,0,0
0,24705.4,0,0,0,9.11278
0,24630.2,0,0
0,24554.8,0,0
0,24479.1,0,0
0,24403.3,0,0
0,24327.2,0,0
0,24250.9,0,0
0,24174.5,0,0
0,24097.8,0,0
0,24021,0,0
0,23944,0,0
0,23866.8,0,0
0,23789.6,0,0
0,23712.1,0,0
0,23634.5,0,0
0,23556.8,0,0
0,23479,0,0
0,23401.1,0,0
0,23323.1,0,0
0,23245,0,0
0,23166.8,0,0
0,23088.5,0,0
0,23010.2,0,0
0,22931.8,0,0
0,22853.4,0,0
0,22774.9,0,0
0,22696.4,0,0
0,22617.9,0,0
0,22539.3,0,0
0,22460.8,0,0
0,22382.3,0,0,0,-14.3122
0,22303.8,0,0
0,22225.2,0,0
0,22146.8,0,0
0,22068.3,0,0
0,21990,0,0
0,21911.6,0,0,0,-10.7322
0,21833.4,0,0
0,21755.2,0,0
0,21677.1,0,0,0,11.3359
0,21599.1,0,0
0,21521.1,0,0
0,21443.3,0,0
0,21365.6,0,0
0,21288,0,0
0,21210.6,0,0
0,21133.3,0,0
0,21056.2,0,0,0,11.3441
0,20979.2,0,0
0,20902.3,0,0
0,20825.7,0,0
0,20749.2,0,0
0,20673,0,0
0,20596.9,0,0
0,20521,0,0
0,20445.4,0,0
0,20370,0,0
0,20294.8,0,0
0,20219.8,0,0
0,20145.1,0,0
0,20070.7,0,0
0,19996.5,0,0
0,19922.6,0,0
0,19849,0,0
0,19775.7,0,0
0,19702.7,0,0
0,19629.9,0,0
0,19557.5,0,0
0,19485.5,0,0
0,19413.7,0,0
0,19342.3,0,0
0,19271.2,0,0
0,19200.5,0,0
0,19130.2,0,0
0,19060.2,0,0
0,18990.6,0,0
0,18921.4,0,0,0,-10.0131
0,18852.6,0,0
0,18784.1,0,0
0,18716.1,0,0
0,18648.5,0,0
0,18581.3,0,0
0,18514.6,0,0
0,18448.3,0,0
0,18382.4,0,0
0,18317,0,0
0,18252,0,0
0,18187.5,0,0
0,18123.5,0,0
0,18060,0,0
0,17996.9,0,0,0,7.65891
0,17934.4,0,0
0,17872.3,0,0
0,17810.7,0,0
0,17749.7,0,0
0,17689.2,0,0
0,17629.2,0,0
0,17569.8,0,0
0,17510.8,0,0
0,17452.5,0,0
0,17394.7,0,0
0,17337.4,0,0
0,17280.7,0,0,0,10.2494
0,17224.6,0,0
0,17169.1,0,0,1,-8.12015
0,17114.1,0,0
0,17059.8,0,0
0,17006,0,0
0,16952.8,0,0
0,16900.3,0,0
0,16848.3,0,0
0,16797,0,0
0,16746.3,0,0
0,16696.3,0,0
0,16646.8,0,0
0,16598,0,0
0,16549.9,0,0
0,16502.4,0,0
0,16455.6,0,0
0,16409.4,0,0
0,16363.9,0,0
0,16319.1,0,0
0,16275,0,0
0,16231.5,0,0
0,16188.7,0,0
0,16146.6,0,0
0,16105.3,0,0
0,16064.6,0,0
0,16024.6,0,0
0,15985.3,0,0
0,15946.8,0,0
0,15908.9,0,0
0,15871.8,0,0
0,15835.4,0,0
0,15799.8,0,0,0,11.9134
0,15764.9,0,0,0,-12.0934
0,15730.7,0,0
0,15697.2,0,0
0,15664.5,0,0
0,15632.6,0,0,0,-14.2941
0,15601.4,0,0
0,15571,0,0
0,15541.3,0,0
0,15512.4,0,0
0,15484.2,0,0
0,15456.9,0,0
0,15430.2,0,0
0,15404.4,0,0,0,13.2146
0,15379.4,0,0
0,15355.1,0,0,1,-8.9833
0,15331.6,0,0
0,15308.9,0,0
0,15287,0,0,0,-13.0386
0,15265.9,0,0,0,-9.51607
0,15245.5,0,0
0,15226,0,0
0,15207.3,0,0
0,15189.3,0,0
0,15172.2,0,0
0,15155.9,0,0,0,8.9471
0,15140.4,0,0
0,15125.6,0,0,1,-8.37277
0,15111.7,0,0
0,15098.6,0,0
0,15086.4,0,0
0,15074.9,0,0
0,15064.2,0,0
0,15054.4,0,0
0,15045.3,0,0
0,15037.1,0,0
0,15029.7,0,0
0,15023.2,0,0
0,15017.4,0,0
0,15012.5,0,0
0,15008.4,0,0
0,15005.1,0,0
0,15002.6,0,0
0,15001,0,0
0,15000,0,0
0,15000,0.523599,0
0,14999.2,0.523599,0
0,14997.5,0.523599,0
0,14995.1,0.523599,0,0,-12.1853
0,14991.8,0.523599,0
0,14987.7,0.523599,0
0,14982.7,0.523599,0
0,14977,0.523599,0
0,14970.4,0.523599,0,0,13.5404
0,14963,0.523599,0
0,14954.8,0.523599,0,0,-13.2876
0,14945.8,0.523599,0
0,14935.9,0.523599,0
0,14925.3,0.523599,0
0,14913.8,0.523599,0
0,14901.5,0.523599,0
0,14888.4,0.523599,0
0,14874.5,0.523599,0
0,14859.8,0.523599,0
0,14844.3,0.523599,0
0,14827.9,0.523599,0
0,14810.8,0.523599,0
0,14792.9,0.523599,0,0,13.6403
0,14774.1,0.523599,0,0,10.6686
0,14754.6,0.523599,0
0,14734.3,0.523599,0
0,14713.2,0.523599,0
0,14691.2,0.523599,0
0,14668.5,0.523599,0
0,14645.1,0.523599,0
0,14620.8,0.523599,0
0,14595.7,0.523599,0
0,14569.9,0.523599,0
0,14543.3,0.523599,0
0,14515.9,0.523599,0
0,14487.8,0.523599,0
0,14458.9,0.523599,0
0,14429.2,0.523599,0
0,14398.8,0.523599,0
0,14367.6,0.523599,0
0,14335.6,0.523599,0
0,14302.9,0.523599,0
0,14269.5,0.523599,0
0,14235.3,0.523599,0
0,14200.4,0.523599,0
0,14164.7,0.523599,0
0,14128.3,0.523599,0
0,14091.2,0.523599,0
0,14053.4,0.523599,0
0,14014.8,0.523599,0
0,13975.6,0.523599,0
0,13935.6,0.523599,0
0,13894.9,0.523599,0
0,13853.5,0.523599,0
0,13811.4,0.523599,0
0,13768.7,0.523599,0
0,13725.2,0.523599,0
0,13681,0.523599,0
0,13636.2,0.523599,0
0,13590.7,0.523599,0
0,13544.6,0.523599,0
0,13497.7,0.523599,0
0,13450.2,0.523599,0
0,13402.1,0.523599,0,1,-9.63992
0,13353.3,0.523599,0
0,13303.9,0.523599,0
0,13253.8,0.523599,0,0,11.7348
0,13203.1,0.523599,0
0,13151.8,0.523599,0
0,13099.9,0.523599,0,0,12.4019
0,13047.3,0.523599,0
0,12994.2,0.523599,0
0,12940.4,0.523599,0
0,12886,0.523599,0
0,12831.1,0.523599,0,0,-10.1094
0,12775.6,0.523599,0
0,12719.4,0.523599,0
0,12662.8,0.523599,0
0,12605.5,0.523599,0
0,12547.7,0.523599,0
0,12489.3,0.523599,0
0,12430.4,0.523599,0
0,12371,0.523599,0
0,12311,0.523599,0
0,12250.4,0.523599,0
0,12189.4,0.523599,0,1,-8.4596
0,12127.9,0.523599,0
0,12065.8,0.523599,0
0,12003.2,0.523599,0
0,11940.2,0.523599,0
0,11876.6,0.523599,0
0,11812.6,0.523599,0
0,11748.1,0.523599,0
0,11683.2,0.523599,0
0,11617.8,0.523599,0
0,11551.9,0.523599,0
0,11485.6,0.523599,0
0,11418.8,0.523599,0
0,11351.6,0.523599,0
0,11284,0.523599,0
0,11216,0.523599,0
0,11147.6,0.523599,0
0,11078.8,0.523599,0
0,11009.6,0.523599,0
0,10940,0.523599,0
0,10870,0.523599,0
0,10799.6,0.523599,0,0,-8.50591
0,10728.9,0.523599,0
0,10657.9,0.523599,0,0,-12.8116
0,10586.4,0.523599,0
0,10514.7,0.523599,0,0,12.6513
0,10442.6,0.523599,0
0,10370.2,0.523599,0
0,10297.5,0.523599,0
0,10224.5,0.523599,0
0,10151.1,0.523599,0
0,10077.5,0.523599,0
0,10003.6,0.523599,0
0,9929.46,0.523599,0
0,9855.02,0.523599,0
0,9780.33,0.523599,0
0,9705.38,0.523599,0
0,9630.19,0.523599,0
0,9554.77,0.523599,0
0,9479.12,0.523599,0,0,-10.2467
0,9403.26,0.523599,0
0,9327.19,0.523599,0
0,9250.92,0.523599,0
0,9174.45,0.523599,0
0,9097.8,0.523599,0
0,9020.98,0.523599,0
0,8943.99,0.523599,0
0,8866.84,0.523599,0
0,8789.54,0.523599,0
0,8712.1,0.523599,0,0,-10.615
0,8634.53,0.523599,0
0,8556.83,0.523599,0
0,8479.02,0.523599,0
0,8401.1,0.523599,0
0,8323.08,0.523599,0
0,8244.97,0.523599,0
0,8166.78,0.523599,0
0,8088.51,0.523599,0
0,8010.18,0.523599,0
0,7931.8,0.523599,0
0,7853.37,0.523599,0
0,7774.9,0.523599,0
0,7696.4,0.523599,0
0,7617.87,0.523599,0
0,7539.34,0.523599,0
0,7460.8,0.523599,0
0,7382.26,0.523599,0
0,7303.74,0.523599,0
0,7225.24,0.523599,0
0,7146.77,0.523599,0
0,7068.34,0.523599,0
0,6989.95,0.523599,0
0,6911.62,0.523599,0
0,6833.36,0.523599,0
0,6755.17,0.523599,0
0,6677.06,0.523599,0
0,6599.04,0.523599,0
0,6521.12,0.523599,0
0,6443.3,0.523599,0
0,6365.61,0.523599,0
0,6288.03,0.523599,0
0,6210.59,0.523599,0
0,6133.3,0.523599,0
0,6056.15,0.523599,0
0,5979.16,0.523599,0
0,5902.33,0.523599,0
0,5825.68,0.523599,0,0,-7.67172
0,5749.22,0.523599,0,0,-10.5989
0,5672.95,0.523599,0
0,5596.87,0.523599,0
0,5521.01,0.523599,0
0,5445.36,0.523599,0
0,5369.94,0.523599,0
0,5294.76,0.523599,0
0,5219.81,0.523599,0
0,5145.11,0.523599,0
0,5070.68,0.523599,0
0,4996.5,0.523599,0
0,4922.61,0.523599,0
0,4848.99,0.523599,0
0,4775.67,0.523599,0
0,4702.65,0.523599,0
0,4629.93,0.523599,0
0,4557.53,0.523599,0
0,4485.45,0.523599,0
0,4413.7,0.523599,0
0,4342.29,0.523599,0
0,4271.22,0.523599,0
0,4200.51,0.523599,0
0,4130.16,0.523599,0
0,4060.18,0.523599,0
0,3990.58,0.523599,0
0,3921.36,0.523599,0
0,3852.54,0.523599,0
0,3784.11,0.523599,0
0,3716.09,0.523599,0
0,3648.49,0.523599,0
0,3581.31,0.523599,0
0,3514.56,0.523599,0
0,3448.25,0.523599,0
0,3382.38,0.523599,0
0,3316.96,0.523599,0
0,3252,0.523599,0
0,3187.51,0.523599,0
0,3123.49,0.523599,0
0,3059.95,0.523599,0
0,2996.9,0.523599,0
0,2934.34,0.523599,0
0,2872.28,0.523599,0,0,9.61263
0,2810.73,0.523599,0,1,-8.99591
0,2749.69,0.523599,0
0,2689.17,0.523599,0
0,2629.19,0.523599,0,0,-13.081
0,2569.73,0.523599,0
0,2510.82,0.523599,0
0,2452.45,0.523599,0,0,-9.42119
0,2394.64,0.523599,0,0,9.50414
0,2337.39,0.523599,0
0,2280.7,0.523599,0
0,2224.58,0.523599,0,1,-9.50168
0,2169.05,0.523599,0
0,2114.1,0.523599,0,0,-9.69506
0,2059.74,0.523599,0,0,-7.77605
0,2005.97,0.523599,0
0,1952.81,0.523599,0
0,1900.26,0.523599,0
0,1848.32,0.523599,0
0,1797,0.523599,0
0,1746.3,0.523599,0
0,1696.24,0.523599,0
0,1646.81,0.523599,0,0,-14.5455
0,1598.03,0.523599,0
0,1549.89,0.523599,0
0,1502.41,0.523599,0
0,1455.58,0.523599,0
0,1409.41,0.523599,0
0,1363.92,0.523599,0
0,1319.09,0.523599,0
0,1274.95,0.523599,0
0,1231.48,0.523599,0
0,1188.71,0.523599,0
0,1146.62,0.523599,0,0,-7.78273
0,1105.24,0.523599,0
0,1064.55,0.523599,0,0,9.01886
0,1024.57,0.523599,0,0,-8.13984
0,985.302,0.523599,0
0,946.746,0.523599,0
0,908.91,0.523599,0
0,871.795,0.523599,0
0,835.408,0.523599,0
0,799.752,0.523599,0
0,764.83,0.523599,0
0,730.647,0.523599,0,0,11.6604
0,697.207,0.523599,0
0,664.512,0.523599,0,0,11.8861
0,632.567,0.523599,0
0,601.375,0.523599,0
0,570.94,0.523599,0
0,541.264,0.523599,0
0,512.352,0.523599,0
0,484.206,0.523599,0
0,456.829,0.523599,0
0,430.225,0.523599,0
0,404.395,0.523599,0
0,379.344,0.523599,0,0,11.8775
0,355.074,0.523599,0
0,331.588,0.523599,0
0,308.887,0.523599,0,0,-14.6537
0,286.975,0.523599,0
0,265.854,0.523599,0
0,245.527,0.523599,0
0,225.995,0.523599,0
0,207.26,0.523599,0
0,189.326,0.523599,0
0,172.193,0.523599,0
0,155.863,0.523599,0
0,140.339,0.523599,0
0,125.623,0.523599,0
0,111.714,0.523599,0
0,98.6164,0.523599,0
0,86.33,0.523599,0
0,74.8567,0.523599,0
0,64.1976,0.523599,0
0,54.354,0.523599,0
0,45.3268,0.523599,0
0,37.1172,0.523599,0
0,29.7259,0.523599,0,0,12.4074
0,23.1539,0.523599,0
0,17.4018,0.523599,0
0,12.4702,0.523599,0
0,8.35977,0.523599,0
0,5.07086,0.523599,0
0,2.60386,0.523599,0
0,0.95905,0.523599,0,0,-8.76038
0,0,0.523599,0
0,0,0,0
0,0,0,0
0,0,0,0
0,0,0,0
0,0,0,0,0,-14.3259
0,0,0,0
0,0,0,0
0,0,0,0,0,13.2732
0,0,0,0
0,0,0,0
0,0,0,0
0,0,0,0,0,14.6832
0,0,0,0
0,0,0,0,0,-9.43709
0,0,0,0
0,0,0,0
0,0,0,0
0,0,0,0,0,11.2948
0,0,0,0
0,0,0,0
0,0,0,0
0,0,0,0
0,0,0,0
0,0,0,0
0,0,0,0,0,7.98977
0,0,0,0
0,0,0,0
0,0,0,0
0,0,0,0
0,0,0,0
0,0,0,0
0,0,0,0,1,8.08853
0,0,0,0
0,0,0,0
0,0,0,0
0,0,0,0,0,13.1825
0,0,0,0
0,0,0,0
0,0,0,0
0,0,0,0
0,0,0,0
0,0,0,0
0,0,0,0
0,0,0,0
0,0,0,0
0,0,0,0
0,0,0,0
0,0,0,0,0,14.1345
0,0,0,0,0,-9.53488
0,0,0,0
0,0,0,0
0,0,0,0
0,0,0,0
0,0,0,0
0,0,0,0
0,0,0,0
0,0,0,0
0,0,0,0
0,0,0,0
0,0,0,0
0,0,0,0
0,0,0,0
0,0,0,0
0,0,0,0
0,0,0,0
0,0,0,0
0,0,0,0
0,0,0,0
0,0,0,0
0,0,0,0,0,-9.25612
0,0,0,0,0,11.503
0,0,0,0
0,0,0,0
0,0,0,0
0,0,0,0
0,0,0,0,0,9.08829
0,0,0,0,1,-9.4831
0,0,0,0
0,0,0,0
0,0,0,0
0,0,0,0
0,0,0,0
0,0,0,0
0,0,0,0
0,0,0,0,0,-10.0941
0,0,0,0,0,-11.6824
0,0,0,0
0,0,0,0
0,0,0,0
0,0,0,0
0,0,0,0
0,0,0,0
0,0,0,0
0,0,0,0
0,0,0,0
0,0,0,0
0,0,0,0
0,0,0,0
0,0,0,0
0,0,0,0
0,0,0,0
0,0,0,0
0,0,0,0
0,0,0,0
0,0,0,0,0,10.7671
0,0,0,0
0,0,0,0
0,0,0,0
0,0,0,0
0,0,0,0
0,0,0,0
0,0,0,0
0,0,0,0
0,0,0,0
0,0,0,0
0,0,0,0
0,0,0,0
0,0,0,0
0,0,0,0
0,0,0,0
0,0,0,0
0,0,0,0,0,11.9753
0,0,0,0
0,0,0,0
0,0,0,0
0,0,0,0
0,0,0,0
0,0,0,0
0,0,0,0
0,0,0,0
0,0,0,0
0,0,0,0
0,0,0,0
0,0,0,0
0,0,0,0
0,0,0,0
0,0,0,0
0,0,0,0
0,0,0,0
0,0,0,0
0,0,0,0
0,0,0,0
0,0,0,0
0,0,0,0
0,0,0,0
0,0,0,0
0,0,0,0
0,0,0,0,0,14.4123
0,0,0,0
0,0,0,0
0,0,0,0
0,0,0,0,0,8.86272
0,0,0,0
0,0,0,0
0,0,0,0
0,0,0,0
0,0,0,0
0,0,0,0
0,0,0,0
0,0,0,0
0,0,0,0
0,0,0,0
0,0,0,0
0,0,0,0
0,0,0,0
0,0,0,0
0,0,0,0
0,0,0,0,2,-11.9288
0,0,0,0
0,0,0,0
0,0,0,0
0,0,0,0
0,0,0,0
0,0,0,0,0,11.6816
0,0,0,0
0,0,0,0
0,0,0,0
0,0,0,0,0,9.45157
0,0,0,0
0,0,0,0
0,0,0,0
0,0,0,0
0,0,0,0
0,0,0,0
0,0,0,0
0,0,0,0
0,0,0,0
0,0,0,0
0,0,0,0
0,0,0,0
0,0,0,0
0,0,0,0,0,-14.7972
0,0,0,0
0,0,0,0
0,0,0,0
0,0,0,0
0,0,0,0
0,0,0,0
0,0,0,0
0,0,0,0
0,0,0,0
0,0,0,0
0,0,0,0
0,0,0,0
0,0,0,0,0,8.29122
0,0,0,0,0,-12.8174
0,0,0,0,0,-12.1541
0,0,0,0
0,0,0,0
0,0,0,0
0,0,0,0
0,0,0,0
0,0,0,0,0,13.6913
0,0,0,0,0,10.2349
0,0,0,0
0,0,0,0
0,0,0,0
0,0,0,0
0,0,0,0,0,-12.9935
0,0,0,0
0,0,0,0
0,0,0,0
0,0,0,0
0,0,0,0
0,0,0,0
0,0,0,0
0,0,0,0
0,0,0,0
0,0,0,0
0,0,0,0,0,-8.98912
0,0,0,0
0,0,0,0
0,0,0,0
0,0,0,0
0,0,0,0
0,0,0,0
0,0,0,0
0,0,0,0
0,0,0,0
0,0,0,0
0,0,0,0
0,0,0,0
0,0,0,0
0,0,0,0
0,0,0,0
0,0,0,0
0,0,0,0
0,0,0,0
0,0,0,0
0,0,0,0
0,0,0,0
0,0,0,0
0,0,0,0
0,0,0,0
0,0,0,0
0,0,0,0
0,0,0,0
0,0,0,0
0,0,0,0
0,0,0,0
0,0,0,0,0,11.2552
0,0,0,0,0,-9.71266
0,0,0,0
0,0,0,0
0,0,0,0
0,0,0,0
0,0,0,0
0,0,0,0
0,0,0,0
0,0,0,0
0,0,0,0
0,0,0,0
0,0,0,0
0,0,0,0
0,0,0,0,0,12.1379
0,0,0,0
0,0,0,0
0,0,0,0,0,12.8239
0,0,0,0
0,0,0,0
0,0,0,0,0,-9.96675
0,0,0,0
0,0,0,0
0,0,0,0
0,0,0,0
0,0,0,0,0,8.12816
0,0,0,0
0,0,0,0
0,0,0,0
0,0,0,0
0,0,0,0
0,0,0,0
0,0,0,0
0,0,0,0
0,0,0,0
0,0,0,0
0,0,0,0
0,0,0,0
0,0,0,0
0,0,0,0
0,0,0,0
0,0,0,0
0,0,0,0
0,0,0,0
0,0,0,0,1,-7.72621
0,0,0,0
0,0,0,0,1,-7.56101
